(module TouchSlider-7_60x12mm (layer F.Cu) (tedit 5DC5DD43)
  (attr smd)
  (fp_text reference REF** (at 0 -7.95) (layer F.SilkS)
    (effects (font (size 1 1) (thickness 0.15)))
  )
  (fp_text value TouchSlider-7_60x12mm (at 0 -6.65) (layer F.Fab)
    (effects (font (size 1 1) (thickness 0.15)))
  )
  (pad 1 smd rect (at -27.059523 0) (size 6.72619 12) (layers F.Cu F.Mask))
  (pad 1 smd trapezoid (at -23.696428 3) (size 4.035714 6) (rect_delta 0 4.035714 ) (layers F.Cu F.Mask))
  (pad 1 smd trapezoid (at -23.696428 -3) (size 4.035714 6) (rect_delta 0 -4.035714 ) (layers F.Cu F.Mask))
  (pad 2 smd rect (at -17.142857 0) (size 4.035714 12) (layers F.Cu F.Mask))
  (pad 2 smd trapezoid (at -15.125 3) (size 4.035714 6) (rect_delta 0 4.035714 ) (layers F.Cu F.Mask))
  (pad 2 smd trapezoid (at -15.125 -3) (size 4.035714 6) (rect_delta 0 -4.035714 ) (layers F.Cu F.Mask))
  (pad 2 smd trapezoid (at -21.178571 0) (size 4.035714 6) (rect_delta -6 0 ) (layers F.Cu F.Mask))
  (pad 3 smd rect (at -8.571429 0) (size 4.035714 12) (layers F.Cu F.Mask))
  (pad 3 smd trapezoid (at -6.553572 3) (size 4.035714 6) (rect_delta 0 4.035714 ) (layers F.Cu F.Mask))
  (pad 3 smd trapezoid (at -6.553572 -3) (size 4.035714 6) (rect_delta 0 -4.035714 ) (layers F.Cu F.Mask))
  (pad 3 smd trapezoid (at -12.607143 0) (size 4.035714 6) (rect_delta -6 0 ) (layers F.Cu F.Mask))
  (pad 4 smd rect (at -0.000001 0) (size 4.035714 12) (layers F.Cu F.Mask))
  (pad 4 smd trapezoid (at 2.017856 3) (size 4.035714 6) (rect_delta 0 4.035714 ) (layers F.Cu F.Mask))
  (pad 4 smd trapezoid (at 2.017856 -3) (size 4.035714 6) (rect_delta 0 -4.035714 ) (layers F.Cu F.Mask))
  (pad 4 smd trapezoid (at -4.035715 0) (size 4.035714 6) (rect_delta -6 0 ) (layers F.Cu F.Mask))
  (pad 5 smd rect (at 8.571427 0) (size 4.035714 12) (layers F.Cu F.Mask))
  (pad 5 smd trapezoid (at 10.589284 3) (size 4.035714 6) (rect_delta 0 4.035714 ) (layers F.Cu F.Mask))
  (pad 5 smd trapezoid (at 10.589284 -3) (size 4.035714 6) (rect_delta 0 -4.035714 ) (layers F.Cu F.Mask))
  (pad 5 smd trapezoid (at 4.535713 0) (size 4.035714 6) (rect_delta -6 0 ) (layers F.Cu F.Mask))
  (pad 6 smd rect (at 17.142855 0) (size 4.035714 12) (layers F.Cu F.Mask))
  (pad 6 smd trapezoid (at 19.160712 3) (size 4.035714 6) (rect_delta 0 4.035714 ) (layers F.Cu F.Mask))
  (pad 6 smd trapezoid (at 19.160712 -3) (size 4.035714 6) (rect_delta 0 -4.035714 ) (layers F.Cu F.Mask))
  (pad 6 smd trapezoid (at 13.107141 0) (size 4.035714 6) (rect_delta -6 0 ) (layers F.Cu F.Mask))
  (pad 7 smd rect (at 27.059521 0) (size 6.72619 12) (layers F.Cu F.Mask))
  (pad 7 smd trapezoid (at 21.678569 0) (size 4.035714 6) (rect_delta -6 0 ) (layers F.Cu F.Mask))
)
