(module "Wendy-GiYah-logo" (layer F.Cu)
(fp_text reference Ref** (at 0 0) (layer F.SilkS) hide
(effects (font (size 1.27 1.27) (thickness 0.15)))
)
(fp_text value Val** (at 0 0) (layer F.SilkS) hide
(effects (font (size 1.27 1.27) (thickness 0.15)))
)
  (fp_poly (pts (xy 1.181549 -7.595124) (xy 1.708699 -7.503451) (xy 2.210593 -7.332642) (xy 2.681377 -7.084222) (xy 2.709618 -7.066164) (xy 2.903131 -6.924602) (xy 3.130156 -6.732083) (xy 3.373349 -6.505340)
     (xy 3.615366 -6.261106) (xy 3.838860 -6.016114) (xy 4.000485 -5.820834) (xy 4.405604 -5.240579) (xy 4.764865 -4.602206) (xy 5.074654 -3.918532) (xy 5.331357 -3.202373) (xy 5.531359 -2.466545)
     (xy 5.671046 -1.723864) (xy 5.746804 -0.987146) (xy 5.755019 -0.269207) (xy 5.713970 0.255110) (xy 5.599664 0.957698) (xy 5.432796 1.598131) (xy 5.210616 2.182713) (xy 4.930379 2.717749)
     (xy 4.589336 3.209545) (xy 4.263294 3.584021) (xy 3.810860 3.996988) (xy 3.309626 4.341490) (xy 2.758943 4.617836) (xy 2.158167 4.826332) (xy 1.506651 4.967288) (xy 1.298226 4.996825)
     (xy 0.881953 5.049007) (xy 0.917226 5.604253) (xy 0.939450 6.015055) (xy 0.947914 6.350234) (xy 0.941320 6.617909) (xy 0.918370 6.826202) (xy 0.877764 6.983234) (xy 0.818207 7.097125)
     (xy 0.738399 7.175996) (xy 0.659050 7.219356) (xy 0.466205 7.270642) (xy 0.280595 7.269269) (xy 0.211667 7.251436) (xy 0.072590 7.158900) (xy -0.044629 6.998956) (xy -0.112041 6.839318)
     (xy -0.140496 6.719075) (xy -0.163059 6.550731) (xy -0.180579 6.324278) (xy -0.193910 6.029711) (xy -0.200726 5.797186) (xy -0.221234 4.969206) (xy -0.592452 4.894169) (xy -0.926605 4.807905)
     (xy -1.297373 4.680670) (xy -1.675158 4.524257) (xy -2.030358 4.350458) (xy -2.205775 4.251485) (xy -2.388393 4.129778) (xy -2.600318 3.969109) (xy -2.812729 3.792079) (xy -2.944130 3.672561)
     (xy -3.377311 3.203422) (xy -3.741600 2.686323) (xy -4.036180 2.123642) (xy -4.260233 1.517760) (xy -4.412944 0.871058) (xy -4.493496 0.185914) (xy -4.499907 -0.424585) (xy -3.935339 -0.424585)
     (xy -3.921984 -0.013865) (xy -3.893206 0.376635) (xy -3.849680 0.725333) (xy -3.796142 0.994833) (xy -3.603797 1.603774) (xy -3.348625 2.158845) (xy -3.032399 2.657876) (xy -2.656895 3.098695)
     (xy -2.223887 3.479132) (xy -1.735149 3.797016) (xy -1.351573 3.985154) (xy -1.178186 4.054155) (xy -0.975196 4.126143) (xy -0.763324 4.194777) (xy -0.563294 4.253712) (xy -0.395829 4.296605)
     (xy -0.281651 4.317113) (xy -0.264226 4.318000) (xy -0.254564 4.277875) (xy -0.243857 4.166313) (xy -0.232560 3.996528) (xy -0.221128 3.781735) (xy -0.210016 3.535150) (xy -0.199678 3.269988)
     (xy -0.190571 2.999465) (xy -0.183148 2.736794) (xy -0.177865 2.495193) (xy -0.175177 2.287875) (xy -0.175539 2.128057) (xy -0.179406 2.028953) (xy -0.184511 2.002710) (xy -0.239450 2.003081)
     (xy -0.345561 2.046652) (xy -0.486936 2.124969) (xy -0.647665 2.229577) (xy -0.747139 2.301720) (xy -0.966753 2.455296) (xy -1.155343 2.554685) (xy -1.337553 2.609494) (xy -1.538025 2.629332)
     (xy -1.589058 2.629958) (xy -1.900185 2.591485) (xy -2.175145 2.482148) (xy -2.405532 2.311067) (xy -2.582943 2.087363) (xy -2.698972 1.820155) (xy -2.745216 1.518566) (xy -2.741455 1.379367)
     (xy -2.677602 1.071466) (xy -2.540879 0.805239) (xy -2.334782 0.585808) (xy -2.095500 0.433849) (xy -1.825948 0.336462) (xy -1.558086 0.313938) (xy -1.283202 0.367502) (xy -0.992583 0.498382)
     (xy -0.805756 0.615406) (xy -0.594232 0.752720) (xy -0.402092 0.863260) (xy -0.244268 0.939207) (xy -0.135695 0.972736) (xy -0.121830 0.973666) (xy -0.096534 0.936633) (xy -0.084773 0.846433)
     (xy -0.084667 0.836026) (xy -0.079673 0.749686) (xy -0.065656 0.592623) (xy -0.044061 0.378132) (xy -0.016332 0.119508) (xy 0.016085 -0.169956) (xy 0.051745 -0.476965) (xy 0.089202 -0.788225)
     (xy 0.111067 -0.964555) (xy 0.139142 -1.188276) (xy -0.046846 -1.162569) (xy -0.173034 -1.136468) (xy -0.347306 -1.089313) (xy -0.538469 -1.029782) (xy -0.602638 -1.007961) (xy -0.807336 -0.941672)
     (xy -0.966634 -0.905009) (xy -1.112165 -0.892465) (xy -1.243742 -0.896334) (xy -1.534593 -0.953201) (xy -1.782878 -1.078858) (xy -1.980238 -1.264985) (xy -2.118312 -1.503262) (xy -2.188741 -1.785368)
     (xy -2.193694 -1.841793) (xy -2.177669 -2.149547) (xy -2.090990 -2.419480) (xy -1.937684 -2.644217) (xy -1.721776 -2.816379) (xy -1.637894 -2.860203) (xy -1.345809 -2.953826) (xy -1.057052 -2.964765)
     (xy -0.779209 -2.894896) (xy -0.519868 -2.746095) (xy -0.292756 -2.527632) (xy -0.169555 -2.389502) (xy -0.037545 -2.256464) (xy 0.089079 -2.141013) (xy 0.196123 -2.055645) (xy 0.269392 -2.012855)
     (xy 0.291628 -2.013184) (xy 0.310122 -2.059077) (xy 0.346319 -2.169890) (xy 0.395006 -2.329038) (xy 0.450970 -2.519935) (xy 0.451387 -2.521386) (xy 0.526713 -2.766979) (xy 0.615997 -3.033272)
     (xy 0.705839 -3.281247) (xy 0.756744 -3.410619) (xy 0.921536 -3.810846) (xy 0.817239 -3.837023) (xy 0.702234 -3.847546) (xy 0.543099 -3.840828) (xy 0.374787 -3.820650) (xy 0.232248 -3.790792)
     (xy 0.167665 -3.766774) (xy 0.011415 -3.724630) (xy -0.184033 -3.731842) (xy -0.393223 -3.783104) (xy -0.590698 -3.873110) (xy -0.697347 -3.947082) (xy -0.877027 -4.145436) (xy -0.988407 -4.377186)
     (xy -1.032271 -4.626786) (xy -1.009407 -4.878687) (xy -0.920600 -5.117342) (xy -0.766636 -5.327204) (xy -0.621482 -5.447997) (xy -0.367828 -5.575947) (xy -0.108249 -5.620011) (xy 0.162276 -5.580964)
     (xy 0.188191 -5.573129) (xy 0.407364 -5.471912) (xy 0.594939 -5.311419) (xy 0.763595 -5.080184) (xy 0.797439 -5.022198) (xy 0.895985 -4.876850) (xy 1.030379 -4.715178) (xy 1.161732 -4.581592)
     (xy 1.396159 -4.403393) (xy 1.642147 -4.293443) (xy 1.914393 -4.248370) (xy 2.227592 -4.264802) (xy 2.407533 -4.295719) (xy 2.700553 -4.336770) (xy 2.941424 -4.325320) (xy 3.146863 -4.258121)
     (xy 3.333590 -4.131923) (xy 3.357147 -4.111208) (xy 3.538630 -3.898674) (xy 3.646781 -3.665239) (xy 3.686270 -3.422924) (xy 3.661770 -3.183749) (xy 3.577952 -2.959736) (xy 3.439487 -2.762904)
     (xy 3.251047 -2.605276) (xy 3.017304 -2.498870) (xy 2.742928 -2.455709) (xy 2.713645 -2.455334) (xy 2.474779 -2.485363) (xy 2.263920 -2.579594) (xy 2.072239 -2.744241) (xy 1.890910 -2.985518)
     (xy 1.838637 -3.071331) (xy 1.733264 -3.233786) (xy 1.614128 -3.391355) (xy 1.520599 -3.495821) (xy 1.357902 -3.654690) (xy 1.311301 -3.532119) (xy 1.271232 -3.404558) (xy 1.222776 -3.216606)
     (xy 1.169851 -2.987594) (xy 1.116375 -2.736850) (xy 1.066266 -2.483704) (xy 1.023442 -2.247485) (xy 0.991822 -2.047522) (xy 0.975325 -1.903145) (xy 0.973837 -1.867354) (xy 1.010279 -1.831839)
     (xy 1.109081 -1.825351) (xy 1.254009 -1.845419) (xy 1.428832 -1.889573) (xy 1.617317 -1.955343) (xy 1.655843 -1.971133) (xy 1.889838 -2.051076) (xy 2.116715 -2.083304) (xy 2.201333 -2.085388)
     (xy 2.470871 -2.061981) (xy 2.693096 -1.984042) (xy 2.892784 -1.841443) (xy 2.961745 -1.774581) (xy 3.129144 -1.546209) (xy 3.224927 -1.291191) (xy 3.251444 -1.024074) (xy 3.211050 -0.759406)
     (xy 3.106096 -0.511735) (xy 2.938936 -0.295606) (xy 2.711922 -0.125568) (xy 2.693425 -0.115542) (xy 2.474479 -0.039901) (xy 2.220459 -0.014357) (xy 1.963601 -0.038223) (xy 1.736144 -0.110814)
     (xy 1.686838 -0.136973) (xy 1.551386 -0.235828) (xy 1.406264 -0.370827) (xy 1.313412 -0.475639) (xy 1.200946 -0.608852) (xy 1.088088 -0.728431) (xy 1.014309 -0.795787) (xy 0.891635 -0.893074)
     (xy 0.868723 -0.795787) (xy 0.860846 -0.729710) (xy 0.851031 -0.598464) (xy 0.839977 -0.417502) (xy 0.828383 -0.202276) (xy 0.816947 0.031762) (xy 0.806369 0.269159) (xy 0.797347 0.494462)
     (xy 0.790580 0.692220) (xy 0.786767 0.846979) (xy 0.786606 0.943288) (xy 0.788978 0.967566) (xy 0.836365 0.968482) (xy 0.935320 0.933200) (xy 1.066223 0.871358) (xy 1.209456 0.792594)
     (xy 1.345399 0.706545) (xy 1.399361 0.667717) (xy 1.655458 0.494533) (xy 1.887802 0.385517) (xy 2.116773 0.332584) (xy 2.264833 0.324382) (xy 2.573072 0.364285) (xy 2.852613 0.479064)
     (xy 3.090360 0.662939) (xy 3.131082 0.706747) (xy 3.303003 0.958197) (xy 3.400483 1.226111) (xy 3.428509 1.499289) (xy 3.392068 1.766534) (xy 3.296148 2.016648) (xy 3.145737 2.238431)
     (xy 2.945821 2.420687) (xy 2.701388 2.552215) (xy 2.417426 2.621818) (xy 2.274552 2.629958) (xy 2.034983 2.612275) (xy 1.824247 2.552214) (xy 1.613680 2.439255) (xy 1.462635 2.331954)
     (xy 1.194652 2.148318) (xy 0.934491 2.016447) (xy 0.861988 1.987444) (xy 0.749735 1.944765) (xy 0.780620 3.116097) (xy 0.789477 3.424708) (xy 0.798953 3.707022) (xy 0.808552 3.951551)
     (xy 0.817779 4.146807) (xy 0.826138 4.281303) (xy 0.833134 4.343549) (xy 0.833615 4.345048) (xy 0.851429 4.375997) (xy 0.885536 4.393709) (xy 0.950142 4.398086) (xy 1.059453 4.389032)
     (xy 1.227675 4.366448) (xy 1.397000 4.341187) (xy 2.004935 4.210885) (xy 2.563939 4.011618) (xy 3.074620 3.743084) (xy 3.537585 3.404981) (xy 3.834221 3.126100) (xy 4.231318 2.655822)
     (xy 4.560913 2.139251) (xy 4.823565 1.574811) (xy 5.019835 0.960928) (xy 5.150283 0.296024) (xy 5.215468 -0.421475) (xy 5.223737 -0.783167) (xy 5.220893 -1.057521) (xy 5.211876 -1.335989)
     (xy 5.197915 -1.593215) (xy 5.180239 -1.803842) (xy 5.170381 -1.883834) (xy 5.019782 -2.698975) (xy 4.810457 -3.477946) (xy 4.545326 -4.214258) (xy 4.227309 -4.901421) (xy 3.859325 -5.532945)
     (xy 3.444295 -6.102340) (xy 3.097610 -6.491169) (xy 2.712000 -6.845146) (xy 2.315746 -7.123565) (xy 1.893664 -7.335413) (xy 1.430573 -7.489679) (xy 1.395492 -7.498740) (xy 1.204179 -7.543706)
     (xy 1.056561 -7.565739) (xy 0.915536 -7.567215) (xy 0.744006 -7.550510) (xy 0.692110 -7.543785) (xy 0.469485 -7.504827) (xy 0.222941 -7.447565) (xy 0.014777 -7.387177) (xy -0.453756 -7.188493)
     (xy -0.910887 -6.911842) (xy -1.352339 -6.563624) (xy -1.773840 -6.150238) (xy -2.171114 -5.678083) (xy -2.539887 -5.153559) (xy -2.875883 -4.583064) (xy -3.174830 -3.972998) (xy -3.432451 -3.329761)
     (xy -3.644473 -2.659751) (xy -3.806621 -1.969368) (xy -3.876111 -1.562262) (xy -3.913077 -1.220365) (xy -3.932594 -0.833945) (xy -3.935339 -0.424585) (xy -4.499907 -0.424585) (xy -4.501070 -0.535290)
     (xy -4.484808 -0.816154) (xy -4.397018 -1.550459) (xy -4.248427 -2.274800) (xy -4.043179 -2.982115) (xy -3.785420 -3.665342) (xy -3.479297 -4.317418) (xy -3.128955 -4.931281) (xy -2.738541 -5.499869)
     (xy -2.312199 -6.016118) (xy -1.854076 -6.472966) (xy -1.368318 -6.863351) (xy -0.859071 -7.180211) (xy -0.702126 -7.259977) (xy -0.382807 -7.402133) (xy -0.095719 -7.500137) (xy 0.192997 -7.562756)
     (xy 0.517204 -7.598754) (xy 0.635000 -7.606138) (xy 1.181549 -7.595124) )(layer B.SilkS) (width  0.010000)
  )
)