<?xml version="1.0" encoding="utf-8"?>
<!-- Generator: Adobe Illustrator 24.0.0, SVG Export Plug-In . SVG Version: 6.00 Build 0)  -->
<svg version="1.1" xmlns="http://www.w3.org/2000/svg" xmlns:xlink="http://www.w3.org/1999/xlink" x="0px" y="0px"
	 viewBox="0 0 311.8 141.7" style="enable-background:new 0 0 311.8 141.7;" xml:space="preserve">
<style type="text/css">
	.st0{fill-rule:evenodd;clip-rule:evenodd;fill:#FFFFFF;}
	.st1{fill:#FFFFFF;}
	.st2{fill:#FFFFFF;fill-opacity:0;}
	.st3{display:none;}
	.st4{display:inline;}
	.st5{display:inline;fill:#FFFFFF;}
	.st6{display:inline;fill:none;stroke:#FF1515;stroke-miterlimit:10;}
</style>
<g id="Board">
	<g>
		<rect x="0" width="311.8" height="141.7"/>
		<g>
			<path class="st0" d="M93.5,91.1L93.5,91.1l0.1,0l0.1,0l0.1,0l0.1,0l0.1,0l0.1,0l0,0.1l0,0.1l0,0.1l0,0.1l0,0.1l0,0.1l0,0.1l0,0.1
				v3.5l0,0.1l0,0.1l0,0.1l0,0.1l0,0.1l0,0.1l0,0.1l0,0.1l-0.1,0l-0.1,0l-0.1,0l-0.1,0l-0.1,0l-0.1,0l-0.1,0l-0.1,0h-2.6l-0.1,0
				l-0.1,0l-0.1,0l-0.1,0l-0.1,0l-0.1,0l-0.1,0l-0.1,0l0-0.1l0-0.1l0-0.1l0-0.1l0-0.1l0-0.1l0-0.1l0-0.1v-3.5l0-0.1l0-0.1l0-0.1
				l0-0.1l0-0.1l0-0.1l0-0.1l0-0.1l0.1,0l0.1,0l0.1,0l0.1,0l0.1,0l0.1,0l0.1,0l0.1,0L93.5,91.1L93.5,91.1z"/>
			<path class="st0" d="M102,91.1L102,91.1l0.1,0l0.1,0l0.1,0l0.1,0l0.1,0l0.1,0l0,0.1l0,0.1l0,0.1l0,0.1l0,0.1l0,0.1l0,0.1l0,0.1
				v3.5l0,0.1l0,0.1l0,0.1l0,0.1l0,0.1l0,0.1l0,0.1l0,0.1l-0.1,0l-0.1,0l-0.1,0l-0.1,0l-0.1,0l-0.1,0l-0.1,0l-0.1,0h-2.6l-0.1,0
				l-0.1,0l-0.1,0L99,96l-0.1,0l-0.1,0l-0.1,0l-0.1,0l0-0.1l0-0.1l0-0.1l0-0.1l0-0.1l0-0.1l0-0.1l0-0.1v-3.5l0-0.1l0-0.1l0-0.1
				l0-0.1l0-0.1l0-0.1l0-0.1l0-0.1l0.1,0l0.1,0l0.1,0l0.1,0l0.1,0l0.1,0l0.1,0l0.1,0L102,91.1L102,91.1z"/>
			<path class="st0" d="M93.5,62.7L93.5,62.7l0.1,0l0.1,0l0.1,0l0.1,0l0.1,0l0.1,0l0,0.1l0,0.1l0,0.1l0,0.1l0,0.1l0,0.1l0,0.1l0,0.1
				V67l0,0.1l0,0.1l0,0.1l0,0.1l0,0.1l0,0.1l0,0.1l0,0.1l-0.1,0l-0.1,0l-0.1,0l-0.1,0l-0.1,0l-0.1,0l-0.1,0l-0.1,0h-2.6l-0.1,0
				l-0.1,0l-0.1,0l-0.1,0l-0.1,0l-0.1,0l-0.1,0l-0.1,0l0-0.1l0-0.1l0-0.1l0-0.1l0-0.1l0-0.1l0-0.1l0-0.1v-3.5l0-0.1l0-0.1l0-0.1
				l0-0.1l0-0.1l0-0.1l0-0.1l0-0.1l0.1,0l0.1,0l0.1,0l0.1,0l0.1,0l0.1,0l0.1,0l0.1,0L93.5,62.7L93.5,62.7z"/>
			<path class="st0" d="M102,62.7L102,62.7l0.1,0l0.1,0l0.1,0l0.1,0l0.1,0l0.1,0l0,0.1l0,0.1l0,0.1l0,0.1l0,0.1l0,0.1l0,0.1l0,0.1
				V67l0,0.1l0,0.1l0,0.1l0,0.1l0,0.1l0,0.1l0,0.1l0,0.1l-0.1,0l-0.1,0l-0.1,0l-0.1,0l-0.1,0l-0.1,0l-0.1,0l-0.1,0h-2.6l-0.1,0
				l-0.1,0l-0.1,0l-0.1,0l-0.1,0l-0.1,0l-0.1,0l-0.1,0l0-0.1l0-0.1l0-0.1l0-0.1l0-0.1l0-0.1l0-0.1l0-0.1v-3.5l0-0.1l0-0.1l0-0.1
				l0-0.1l0-0.1l0-0.1l0-0.1l0-0.1l0.1,0l0.1,0l0.1,0l0.1,0l0.1,0l0.1,0l0.1,0l0.1,0L102,62.7L102,62.7z"/>
			<path class="st0" d="M93.5,76.9L93.5,76.9l0.1,0l0.1,0l0.1,0l0.1,0l0.1,0l0.1,0l0,0.1l0,0.1l0,0.1l0,0.1l0,0.1l0,0.1l0,0.1l0,0.1
				v3.5l0,0.1l0,0.1l0,0.1l0,0.1l0,0.1l0,0.1l0,0.1l0,0.1l-0.1,0l-0.1,0l-0.1,0l-0.1,0l-0.1,0l-0.1,0l-0.1,0l-0.1,0h-2.6l-0.1,0
				l-0.1,0l-0.1,0l-0.1,0l-0.1,0l-0.1,0l-0.1,0l-0.1,0l0-0.1l0-0.1l0-0.1l0-0.1l0-0.1l0-0.1l0-0.1l0-0.1v-3.5l0-0.1l0-0.1l0-0.1
				l0-0.1l0-0.1l0-0.1l0-0.1l0-0.1l0.1,0l0.1,0l0.1,0l0.1,0l0.1,0l0.1,0l0.1,0l0.1,0L93.5,76.9L93.5,76.9z"/>
			<path class="st0" d="M102,76.9L102,76.9l0.1,0l0.1,0l0.1,0l0.1,0l0.1,0l0.1,0l0,0.1l0,0.1l0,0.1l0,0.1l0,0.1l0,0.1l0,0.1l0,0.1
				v3.5l0,0.1l0,0.1l0,0.1l0,0.1l0,0.1l0,0.1l0,0.1l0,0.1l-0.1,0l-0.1,0l-0.1,0l-0.1,0l-0.1,0l-0.1,0l-0.1,0l-0.1,0h-2.6l-0.1,0
				l-0.1,0l-0.1,0l-0.1,0l-0.1,0l-0.1,0l-0.1,0l-0.1,0l0-0.1l0-0.1l0-0.1l0-0.1l0-0.1l0-0.1l0-0.1l0-0.1v-3.5l0-0.1l0-0.1l0-0.1
				l0-0.1l0-0.1l0-0.1l0-0.1l0-0.1l0.1,0l0.1,0l0.1,0l0.1,0l0.1,0l0.1,0l0.1,0l0.1,0L102,76.9L102,76.9z"/>
			<path class="st0" d="M76.1,62.4V68h-5.7v-5.7H76.1z"/>
			<circle class="st1" cx="73.2" cy="72.3" r="2.8"/>
			<circle class="st1" cx="73.2" cy="79.4" r="2.8"/>
			<circle class="st1" cx="32.1" cy="65.2" r="2.8"/>
			<circle class="st1" cx="32.1" cy="79.4" r="2.8"/>
			<path class="st2" d="M177.1,42.5L177.1,42.5"/>
			<path class="st1" d="M177.1,44.9c-0.2,0-0.3,0-0.5,0c-0.2,0-0.3-0.1-0.5-0.1c-0.1-0.1-0.3-0.1-0.4-0.2c-0.1-0.1-0.3-0.2-0.4-0.3
				c-0.5-0.5-0.7-1.1-0.7-1.7c0-0.2,0-0.3,0-0.5c0-0.2,0.1-0.3,0.1-0.5c0.1-0.1,0.1-0.3,0.2-0.4c0.1-0.1,0.2-0.3,0.3-0.4
				c0.9-0.9,2.5-0.9,3.4,0c0.1,0.1,0.2,0.2,0.3,0.4c0.1,0.1,0.2,0.3,0.2,0.4c0.1,0.1,0.1,0.3,0.1,0.5c0,0.1,0,0.3,0,0.5
				c0,0.6-0.3,1.3-0.7,1.7S177.7,44.9,177.1,44.9z"/>
			<path class="st2" d="M184.3,42.5L184.3,42.5"/>
			<path class="st1" d="M184.3,44.9c-0.6,0-1.3-0.3-1.7-0.7c-0.4-0.5-0.7-1.1-0.7-1.7c0-0.6,0.3-1.3,0.7-1.7
				c0.6-0.6,1.4-0.8,2.2-0.6c0.2,0,0.3,0.1,0.5,0.1c0.2,0.1,0.3,0.1,0.4,0.2c0.1,0.1,0.3,0.2,0.4,0.3c0.1,0.1,0.2,0.2,0.3,0.4
				c0.1,0.1,0.2,0.3,0.2,0.4c0.1,0.1,0.1,0.3,0.1,0.5c0,0.1,0,0.3,0,0.5c0,0.2,0,0.3,0,0.5c0,0.1-0.1,0.3-0.1,0.5
				c-0.1,0.1-0.1,0.3-0.2,0.4c-0.1,0.1-0.2,0.3-0.3,0.4C185.6,44.7,184.9,44.9,184.3,44.9z"/>
			<path class="st2" d="M191.5,42.5L191.5,42.5"/>
			<path class="st1" d="M191.5,44.9c-0.2,0-0.3,0-0.5,0c-0.2,0-0.3-0.1-0.5-0.1c-0.2-0.1-0.3-0.1-0.4-0.2c-0.1-0.1-0.3-0.2-0.4-0.3
				c-0.1-0.1-0.2-0.2-0.3-0.4c-0.1-0.1-0.2-0.3-0.2-0.4c-0.1-0.2-0.1-0.3-0.1-0.5c0-0.2,0-0.3,0-0.5c0-0.2,0-0.3,0-0.5
				c0-0.2,0.1-0.3,0.1-0.5c0.1-0.1,0.1-0.3,0.2-0.4c0.1-0.1,0.2-0.3,0.3-0.4c0.9-0.9,2.5-0.9,3.4,0c0.1,0.1,0.2,0.2,0.3,0.4
				s0.2,0.3,0.2,0.4c0.1,0.1,0.1,0.3,0.1,0.5c0,0.1,0,0.3,0,0.5c0,0.2,0,0.3,0,0.5c0,0.1-0.1,0.3-0.1,0.5c-0.1,0.1-0.1,0.3-0.2,0.4
				s-0.2,0.3-0.3,0.4c-0.1,0.1-0.2,0.2-0.4,0.3c-0.1,0.1-0.3,0.2-0.4,0.2c-0.1,0.1-0.3,0.1-0.5,0.1
				C191.8,44.9,191.7,44.9,191.5,44.9z"/>
			<path class="st0" d="M201.1,44.9h-4.8v-4.8h4.8V44.9z"/>
			<path class="st2" d="M278.6,99.2H277"/>
			<path class="st1" d="M278.6,100.9H277c-0.9,0-1.7-0.8-1.7-1.7s0.8-1.7,1.7-1.7h1.6c0.9,0,1.7,0.8,1.7,1.7
				S279.5,100.9,278.6,100.9z"/>
			<path class="st2" d="M278.6,93.5H277"/>
			<path class="st1" d="M278.6,95.2H277c-0.9,0-1.7-0.8-1.7-1.7s0.8-1.7,1.7-1.7h1.6c0.9,0,1.7,0.8,1.7,1.7S279.5,95.2,278.6,95.2z"
				/>
			<path class="st2" d="M278.6,87.9H277"/>
			<path class="st1" d="M278.6,89.6H277c-0.9,0-1.7-0.8-1.7-1.7s0.8-1.7,1.7-1.7h1.6c0.9,0,1.7,0.8,1.7,1.7S279.5,89.6,278.6,89.6z"
				/>
			<path class="st2" d="M278.6,82.2H277"/>
			<path class="st1" d="M278.6,83.9H277c-0.9,0-1.7-0.8-1.7-1.7s0.8-1.7,1.7-1.7h1.6c0.9,0,1.7,0.8,1.7,1.7S279.5,83.9,278.6,83.9z"
				/>
			<path class="st2" d="M278.6,76.5H277"/>
			<path class="st1" d="M278.6,78.2H277c-0.9,0-1.7-0.8-1.7-1.7s0.8-1.7,1.7-1.7h1.6c0.9,0,1.7,0.8,1.7,1.7S279.5,78.2,278.6,78.2z"
				/>
			<path class="st2" d="M278.6,70.9H277"/>
			<path class="st1" d="M278.6,72.6H277c-0.9,0-1.7-0.8-1.7-1.7s0.8-1.7,1.7-1.7h1.6c0.9,0,1.7,0.8,1.7,1.7S279.5,72.6,278.6,72.6z"
				/>
			<path class="st2" d="M278.6,65.2H277"/>
			<path class="st1" d="M278.6,66.9H277c-0.9,0-1.7-0.8-1.7-1.7s0.8-1.7,1.7-1.7h1.6c0.9,0,1.7,0.8,1.7,1.7S279.5,66.9,278.6,66.9z"
				/>
			<path class="st2" d="M278.6,59.5H277"/>
			<path class="st1" d="M278.6,61.2H277c-0.9,0-1.7-0.8-1.7-1.7s0.8-1.7,1.7-1.7h1.6c0.9,0,1.7,0.8,1.7,1.7S279.5,61.2,278.6,61.2z"
				/>
			<path class="st2" d="M278.6,53.9H277"/>
			<path class="st1" d="M278.6,55.6H277c-0.9,0-1.7-0.8-1.7-1.7s0.8-1.7,1.7-1.7h1.6c0.9,0,1.7,0.8,1.7,1.7S279.5,55.6,278.6,55.6z"
				/>
			<path class="st2" d="M278.6,48.2H277"/>
			<path class="st1" d="M278.6,49.9H277c-0.9,0-1.7-0.8-1.7-1.7s0.8-1.7,1.7-1.7h1.6c0.9,0,1.7,0.8,1.7,1.7S279.5,49.9,278.6,49.9z"
				/>
			<path class="st0" d="M279.6,40.8L279.6,40.8l0.1,0l0.1,0l0.1,0l0.1,0l0.1,0l0.1,0l0,0.1l0,0.1l0,0.1l0,0.1l0,0.1l0,0.1l0,0.1
				l0,0.1v2l0,0.1l0,0.1l0,0.1l0,0.1l0,0.1l0,0.1l0,0.1l0,0.1l-0.1,0l-0.1,0l-0.1,0l-0.1,0l-0.1,0l-0.1,0l-0.1,0l-0.1,0H276l-0.1,0
				l-0.1,0l-0.1,0l-0.1,0l-0.1,0l-0.1,0l-0.1,0l-0.1,0l0-0.1l0-0.1l0-0.1l0-0.1l0-0.1l0-0.1l0-0.1l0-0.1v-2l0-0.1l0-0.1l0-0.1l0-0.1
				l0-0.1l0-0.1l0-0.1l0-0.1l0.1,0l0.1,0l0.1,0l0.1,0l0.1,0l0.1,0l0.1,0l0.1,0L279.6,40.8L279.6,40.8z"/>
			<path class="st1" d="M100.6,64.1c-0.6,0-1.1,0.5-1.1,1.1v14.2v14.2c0,0.6,0.5,1.1,1.1,1.1s1.1-0.5,1.1-1.1V79.4V65.2
				C101.7,64.6,101.2,64.1,100.6,64.1z"/>
			<path class="st1" d="M183.3,64.6h-82.7c-0.3,0-0.6,0.3-0.6,0.6s0.3,0.6,0.6,0.6h83c0.1,0,0.1,0,0.2,0c0.1,0,0.1-0.1,0.2-0.1
				l4.1-4.1h0.2l38.6,38.1c0,0,0,0,0,0l0,0c0,0,0,0,0,0c0,0,0.1,0.1,0.2,0.1c0.1,0,0.1,0,0.2,0h46.9h3.6c0.3,0,0.6-0.3,0.6-0.6
				s-0.3-0.6-0.6-0.6h-3.6h-46.6l-38.6-38.1l0,0c0,0,0,0,0,0l-15.6-16.1v-3.8l1.9-1.9h11.7l4.2,4.2c0.1,0.1,0.3,0.2,0.4,0.2
				s0.3-0.1,0.4-0.2c0.2-0.2,0.2-0.6,0-0.8l-4.4-4.4c-0.1-0.1-0.1-0.1-0.2-0.1c-0.1,0-0.1,0-0.2,0H175c0,0,0,0,0,0
				c-0.1,0-0.1,0-0.2,0c-0.1,0-0.1,0.1-0.2,0.1l-2.3,2.3c-0.1,0.1-0.1,0.1-0.1,0.2c0,0,0,0.1,0,0.1c0,0,0,0.1,0,0.1v4.2
				c0,0,0,0.1,0,0.1c0,0,0,0.1,0,0.1c0,0.1,0.1,0.1,0.1,0.1c0,0,0,0,0,0l0,0c0,0,0,0,0,0l15,15.5L183.3,64.6z"/>
			<path class="st1" d="M282.8,97.5c0-0.1-0.1-0.1-0.1-0.2l-2.1-2.2c-0.1-0.1-0.1-0.1-0.2-0.1c-0.1,0-0.1,0-0.2,0H280l-1.8-1.8
				c-0.2-0.2-0.6-0.2-0.8,0c-0.2,0.2-0.2,0.6,0,0.8l2,2c0.1,0.1,0.1,0.1,0.2,0.1c0.1,0,0.1,0,0.2,0h0.1l1.8,1.8v2.6l-1.8,1.8h-177
				l-6.1-6.1V76.5V63l26.8-26.8h71.5l3.1,3.1v3.3c0,0.3,0.3,0.6,0.6,0.6s0.6-0.3,0.6-0.6V39c0,0,0,0,0-0.1c0-0.1,0-0.1,0-0.1
				c0-0.1-0.1-0.1-0.1-0.2l-3.4-3.4c-0.1-0.1-0.1-0.1-0.2-0.1c-0.1,0-0.1,0-0.2,0c0,0,0,0-0.1,0h-72c-0.1,0-0.1,0-0.2,0
				c-0.1,0-0.1,0.1-0.2,0.1L95.8,62.3c0,0,0,0,0,0c0,0-0.1,0.1-0.1,0.2c0,0.1,0,0.1,0,0.2c0,0,0,0,0,0v12.4l-3.2-3.2
				c-0.1-0.1-0.1-0.1-0.2-0.1c-0.1,0-0.1,0-0.2,0c0,0,0,0,0,0H77.2h-4c-0.3,0-0.6,0.3-0.6,0.6s0.3,0.6,0.6,0.6h4h14.5l3.9,3.9v19.5
				l-1.2,1.2H43.9l-16-16V70.3l4.7-4.7c0.2-0.2,0.2-0.6,0-0.8c-0.2-0.2-0.6-0.2-0.8,0l-4.8,4.8c-0.1,0.1-0.1,0.1-0.1,0.2
				c0,0.1,0,0.1,0,0.2c0,0,0,0,0,0v11.7c0,0,0,0,0,0c0,0.1,0,0.1,0,0.2c0,0.1,0.1,0.1,0.1,0.2l16.3,16.3c0.1,0.1,0.1,0.1,0.2,0.1
				c0.1,0,0.1,0,0.2,0h51c0.1,0,0.1,0,0.2,0c0.1,0,0.1-0.1,0.2-0.1c0,0,0,0,0,0l1.2-1.2l6.1,6.1c0,0,0,0,0,0c0,0,0.1,0.1,0.2,0.1
				c0.1,0,0.1,0,0.2,0h177.5c0.1,0,0.1,0,0.2,0c0.1,0,0.1-0.1,0.2-0.1l2.1-2.2c0.1-0.1,0.1-0.1,0.1-0.2c0,0,0-0.1,0-0.1
				c0,0,0-0.1,0-0.1v-3.1c0,0,0-0.1,0-0.1C282.8,97.6,282.8,97.5,282.8,97.5z"/>
			<path class="st1" d="M278.4,87.9c0-0.3-0.3-0.6-0.6-0.6h-55.1l-45.2-45.2c-0.2-0.2-0.6-0.2-0.8,0c-0.2,0.2-0.2,0.6,0,0.8
				l45.3,45.3c0.1,0.1,0.1,0.1,0.2,0.1c0.1,0,0.1,0,0.2,0h55.3C278.1,88.4,278.4,88.2,278.4,87.9z"/>
			<path class="st1" d="M277.8,81.6h-53.6l-39.5-39.5c-0.2-0.2-0.6-0.2-0.8,0c-0.2,0.2-0.2,0.6,0,0.8l39.7,39.7
				c0.1,0.1,0.1,0.1,0.2,0.1c0.1,0,0.1,0,0.2,0h53.8c0.3,0,0.6-0.3,0.6-0.6S278.1,81.6,277.8,81.6z"/>
			<path class="st1" d="M282.8,40.3c0,0,0-0.1,0-0.1c0-0.1-0.1-0.1-0.1-0.2l-14.2-14.2c-0.1-0.1-0.1-0.1-0.2-0.1c-0.1,0-0.1,0-0.2,0
				H65.2c-0.1,0-0.1,0-0.2,0c-0.1,0-0.1,0.1-0.2,0.1c0,0,0,0,0,0L40.7,49.9c-0.1,0.1-0.1,0.1-0.1,0.2c0,0.1,0,0.1,0,0.2c0,0,0,0,0,0
				v19.8L31.7,79c-0.1,0.1-0.2,0.3-0.2,0.4c0,0.1,0,0.1,0,0.2s0.1,0.1,0.1,0.2l14.2,14.2c0,0,0,0,0,0c0,0,0.1,0.1,0.2,0.1
				c0.1,0,0.1,0,0.2,0h45.9c0.3,0,0.6-0.3,0.6-0.6S92.5,93,92.2,93H46.5L32.9,79.4l8.6-8.6c0,0,0,0,0,0c0,0,0.1-0.1,0.1-0.2
				c0-0.1,0-0.1,0-0.2c0,0,0,0,0,0V50.6l23.8-23.8h202.4l13.9,13.9v8.8l-1.8,1.8h-1.5c-0.1,0-0.1,0-0.2,0c-0.1,0-0.1,0.1-0.2,0.1
				l-0.6,0.6c-0.1,0.1-0.1,0.1-0.1,0.2c0,0,0,0.1,0,0.1c0,0,0,0.1,0,0.1v1.4c0,0.3,0.3,0.6,0.6,0.6s0.6-0.3,0.6-0.6v-1.2l0.2-0.2
				h1.5c0.1,0,0.1,0,0.2,0c0.1,0,0.1-0.1,0.2-0.1l2.1-2.1c0.1-0.1,0.1-0.1,0.1-0.2c0,0,0-0.1,0-0.1c0,0,0-0.1,0-0.1L282.8,40.3
				C282.8,40.4,282.8,40.4,282.8,40.3z"/>
			<path class="st1" d="M61.8,75.3c0,0.1,0.1,0.1,0.1,0.2l4.3,4.2c0.1,0.1,0.1,0.1,0.2,0.1c0.1,0,0.1,0,0.2,0h6.6h18.9
				c0.3,0,0.6-0.3,0.6-0.6s-0.3-0.6-0.6-0.6H73.2h-6.4l-3.9-3.9V63.3L96,30.2h168.6l12.7,12.7c0.1,0.1,0.3,0.2,0.4,0.2
				s0.3-0.1,0.4-0.2c0.2-0.2,0.2-0.6,0-0.8l-12.9-12.9c0,0,0,0,0,0c0,0-0.1-0.1-0.2-0.1c-0.1,0-0.1,0-0.2,0H95.8c-0.1,0-0.1,0-0.2,0
				c-0.1,0-0.1,0.1-0.2,0.1c0,0,0,0,0,0L62,62.7c-0.1,0.1-0.1,0.1-0.1,0.2c0,0.1,0,0.1,0,0.2c0,0,0,0,0,0v12v0
				C61.8,75.2,61.8,75.3,61.8,75.3z"/>
			<path class="st1" d="M277.8,48.8c0.3,0,0.6-0.3,0.6-0.6s-0.3-0.6-0.6-0.6h-55l-15.8-15.9c0,0,0,0,0,0c0,0-0.1-0.1-0.2-0.1
				c-0.1,0-0.1,0-0.2,0h-83.8c-0.1,0-0.1,0-0.2,0c-0.1,0-0.1,0.1-0.2,0.1c0,0,0,0,0,0L91.8,62.3c0,0,0,0,0,0c0,0-0.1,0.1-0.1,0.2
				c0,0.1,0,0.1,0,0.2c0,0,0,0,0,0v1.9H73.2c-0.3,0-0.6,0.3-0.6,0.6s0.3,0.6,0.6,0.6h18.9c0.3,0,0.6-0.3,0.6-0.6V63l30.2-30.2h83.3
				l15.8,15.9c0.1,0.1,0.1,0.1,0.2,0.1c0.1,0,0.1,0,0.2,0H277.8z"/>
		</g>
	</g>
	<g class="st3">
		<rect x="0" class="st4" width="311.8" height="141.7"/>
		<rect x="14.2" y="14.2" class="st5" width="283.5" height="113.4"/>
		<g class="st4">
			<circle cx="283.5" cy="28.3" r="4.7"/>
			<circle cx="283.5" cy="113.2" r="4.7"/>
			<circle cx="28.3" cy="113.3" r="4.7"/>
			<circle cx="28.4" cy="28.4" r="4.7"/>
		</g>
		<g class="st4">
			<g>
				<circle cx="73.2" cy="65.2" r="1.4"/>
			</g>
			<g>
				<circle cx="73.2" cy="72.3" r="1.4"/>
			</g>
			<g>
				<circle cx="73.2" cy="79.4" r="1.4"/>
			</g>
			<path d="M53.8,58.5h-3.7c-1.2,0-2.1-1-2.1-2.1s1-2.1,2.1-2.1h3.7c1.2,0,2.1,1,2.1,2.1S55,58.5,53.8,58.5z"/>
			<path d="M53.8,90.3h-3.7c-1.2,0-2.1-1-2.1-2.1s1-2.1,2.1-2.1h3.7c1.2,0,2.1,1,2.1,2.1S55,90.3,53.8,90.3z"/>
			<g>
				<circle cx="32.1" cy="65.2" r="1.4"/>
			</g>
			<g>
				<circle cx="32.1" cy="79.4" r="1.4"/>
			</g>
			<g>
				<circle cx="177.1" cy="42.5" r="1.4"/>
			</g>
			<g>
				<circle cx="184.3" cy="42.5" r="1.4"/>
			</g>
			<g>
				<circle cx="191.5" cy="42.5" r="1.4"/>
			</g>
			<g>
				<circle cx="198.7" cy="42.5" r="1.4"/>
			</g>
			<g>
				<circle cx="277.8" cy="99.2" r="1.1"/>
			</g>
			<g>
				<circle cx="277.8" cy="93.5" r="1.1"/>
			</g>
			<g>
				<circle cx="277.8" cy="87.9" r="1.1"/>
			</g>
			<g>
				<circle cx="277.8" cy="82.2" r="1.1"/>
			</g>
			<g>
				<circle cx="277.8" cy="76.5" r="1.1"/>
			</g>
			<g>
				<circle cx="277.8" cy="70.9" r="1.1"/>
			</g>
			<g>
				<circle cx="277.8" cy="65.2" r="1.1"/>
			</g>
			<g>
				<circle cx="277.8" cy="59.5" r="1.1"/>
			</g>
			<g>
				<circle cx="277.8" cy="53.9" r="1.1"/>
			</g>
			<g>
				<circle cx="277.8" cy="48.2" r="1.1"/>
			</g>
			<g>
				<circle cx="277.8" cy="42.5" r="1.1"/>
			</g>
		</g>
	</g>
	<g>
		<rect x="0" y="127.7" width="311.8" height="141.7"/>
		<g>
			<path class="st0" d="M93.5,218.8L93.5,218.8l0.1,0l0.1,0l0.1,0l0.1,0l0.1,0l0.1,0l0,0.1l0,0.1l0,0.1l0,0.1l0,0.1l0,0.1l0,0.1
				l0,0.1v3.5l0,0.1l0,0.1l0,0.1l0,0.1l0,0.1l0,0.1l0,0.1l0,0.1l-0.1,0l-0.1,0l-0.1,0l-0.1,0l-0.1,0l-0.1,0l-0.1,0l-0.1,0h-2.6
				l-0.1,0l-0.1,0l-0.1,0l-0.1,0l-0.1,0l-0.1,0l-0.1,0l-0.1,0l0-0.1l0-0.1l0-0.1l0-0.1l0-0.1l0-0.1l0-0.1l0-0.1v-3.5l0-0.1l0-0.1
				l0-0.1l0-0.1l0-0.1l0-0.1l0-0.1l0-0.1l0.1,0l0.1,0l0.1,0l0.1,0l0.1,0l0.1,0l0.1,0l0.1,0L93.5,218.8L93.5,218.8z"/>
			<path class="st0" d="M102,218.8L102,218.8l0.1,0l0.1,0l0.1,0l0.1,0l0.1,0l0.1,0l0,0.1l0,0.1l0,0.1l0,0.1l0,0.1l0,0.1l0,0.1l0,0.1
				v3.5l0,0.1l0,0.1l0,0.1l0,0.1l0,0.1l0,0.1l0,0.1l0,0.1l-0.1,0l-0.1,0l-0.1,0l-0.1,0l-0.1,0l-0.1,0l-0.1,0l-0.1,0h-2.6l-0.1,0
				l-0.1,0l-0.1,0l-0.1,0l-0.1,0l-0.1,0l-0.1,0l-0.1,0l0-0.1l0-0.1l0-0.1l0-0.1l0-0.1l0-0.1l0-0.1l0-0.1v-3.5l0-0.1l0-0.1l0-0.1
				l0-0.1l0-0.1l0-0.1l0-0.1l0-0.1l0.1,0l0.1,0l0.1,0l0.1,0l0.1,0l0.1,0l0.1,0l0.1,0L102,218.8L102,218.8z"/>
			<path class="st0" d="M93.5,190.5L93.5,190.5l0.1,0l0.1,0l0.1,0l0.1,0l0.1,0l0.1,0l0,0.1l0,0.1l0,0.1l0,0.1l0,0.1l0,0.1l0,0.1
				l0,0.1v3.5l0,0.1l0,0.1l0,0.1l0,0.1l0,0.1l0,0.1l0,0.1l0,0.1l-0.1,0l-0.1,0l-0.1,0l-0.1,0l-0.1,0l-0.1,0l-0.1,0l-0.1,0h-2.6
				l-0.1,0l-0.1,0l-0.1,0l-0.1,0l-0.1,0l-0.1,0l-0.1,0l-0.1,0l0-0.1l0-0.1l0-0.1l0-0.1l0-0.1l0-0.1l0-0.1l0-0.1v-3.5l0-0.1l0-0.1
				l0-0.1l0-0.1l0-0.1l0-0.1l0-0.1l0-0.1l0.1,0l0.1,0l0.1,0l0.1,0l0.1,0l0.1,0l0.1,0l0.1,0L93.5,190.5L93.5,190.5z"/>
			<path class="st0" d="M102,190.5L102,190.5l0.1,0l0.1,0l0.1,0l0.1,0l0.1,0l0.1,0l0,0.1l0,0.1l0,0.1l0,0.1l0,0.1l0,0.1l0,0.1l0,0.1
				v3.5l0,0.1l0,0.1l0,0.1l0,0.1l0,0.1l0,0.1l0,0.1l0,0.1l-0.1,0l-0.1,0l-0.1,0l-0.1,0l-0.1,0l-0.1,0l-0.1,0l-0.1,0h-2.6l-0.1,0
				l-0.1,0l-0.1,0l-0.1,0l-0.1,0l-0.1,0l-0.1,0l-0.1,0l0-0.1l0-0.1l0-0.1l0-0.1l0-0.1l0-0.1l0-0.1l0-0.1v-3.5l0-0.1l0-0.1l0-0.1
				l0-0.1l0-0.1l0-0.1l0-0.1l0-0.1l0.1,0l0.1,0l0.1,0l0.1,0l0.1,0l0.1,0l0.1,0l0.1,0L102,190.5L102,190.5z"/>
			<path class="st0" d="M93.5,204.6L93.5,204.6l0.1,0l0.1,0l0.1,0l0.1,0l0.1,0l0.1,0l0,0.1l0,0.1l0,0.1l0,0.1l0,0.1l0,0.1l0,0.1
				l0,0.1v3.5l0,0.1l0,0.1l0,0.1l0,0.1l0,0.1l0,0.1l0,0.1l0,0.1l-0.1,0l-0.1,0l-0.1,0l-0.1,0l-0.1,0l-0.1,0l-0.1,0l-0.1,0h-2.6
				l-0.1,0l-0.1,0l-0.1,0l-0.1,0l-0.1,0l-0.1,0l-0.1,0l-0.1,0l0-0.1l0-0.1l0-0.1l0-0.1l0-0.1l0-0.1l0-0.1l0-0.1v-3.5l0-0.1l0-0.1
				l0-0.1l0-0.1l0-0.1l0-0.1l0-0.1l0-0.1l0.1,0l0.1,0l0.1,0l0.1,0l0.1,0l0.1,0l0.1,0l0.1,0L93.5,204.6L93.5,204.6z"/>
			<path class="st0" d="M102,204.6L102,204.6l0.1,0l0.1,0l0.1,0l0.1,0l0.1,0l0.1,0l0,0.1l0,0.1l0,0.1l0,0.1l0,0.1l0,0.1l0,0.1l0,0.1
				v3.5l0,0.1l0,0.1l0,0.1l0,0.1l0,0.1l0,0.1l0,0.1l0,0.1l-0.1,0l-0.1,0l-0.1,0l-0.1,0l-0.1,0l-0.1,0l-0.1,0l-0.1,0h-2.6l-0.1,0
				l-0.1,0l-0.1,0l-0.1,0l-0.1,0l-0.1,0l-0.1,0l-0.1,0l0-0.1l0-0.1l0-0.1l0-0.1l0-0.1l0-0.1l0-0.1l0-0.1v-3.5l0-0.1l0-0.1l0-0.1
				l0-0.1l0-0.1l0-0.1l0-0.1l0-0.1l0.1,0l0.1,0l0.1,0l0.1,0l0.1,0l0.1,0l0.1,0l0.1,0L102,204.6L102,204.6z"/>
			<path class="st0" d="M76.1,190.1v5.7h-5.7v-5.7H76.1z"/>
			<circle class="st1" cx="73.2" cy="200" r="2.8"/>
			<circle class="st1" cx="73.2" cy="207.1" r="2.8"/>
			<circle class="st1" cx="32.1" cy="192.9" r="2.8"/>
			<circle class="st1" cx="32.1" cy="207.1" r="2.8"/>
			<path class="st2" d="M177.1,170.3L177.1,170.3"/>
			<path class="st1" d="M177.1,172.7c-0.2,0-0.3,0-0.5,0c-0.2,0-0.3-0.1-0.5-0.1c-0.1-0.1-0.3-0.1-0.4-0.2c-0.1-0.1-0.3-0.2-0.4-0.3
				c-0.5-0.5-0.7-1.1-0.7-1.7c0-0.2,0-0.3,0-0.5c0-0.2,0.1-0.3,0.1-0.5c0.1-0.1,0.1-0.3,0.2-0.4c0.1-0.1,0.2-0.3,0.3-0.4
				c0.9-0.9,2.5-0.9,3.4,0c0.1,0.1,0.2,0.2,0.3,0.4c0.1,0.1,0.2,0.3,0.2,0.4c0.1,0.1,0.1,0.3,0.1,0.5c0,0.1,0,0.3,0,0.5
				c0,0.6-0.3,1.3-0.7,1.7S177.7,172.7,177.1,172.7z"/>
			<path class="st2" d="M184.3,170.3L184.3,170.3"/>
			<path class="st1" d="M184.3,172.7c-0.6,0-1.3-0.3-1.7-0.7c-0.4-0.5-0.7-1.1-0.7-1.7c0-0.6,0.3-1.3,0.7-1.7
				c0.6-0.6,1.4-0.8,2.2-0.6c0.2,0,0.3,0.1,0.5,0.1c0.2,0.1,0.3,0.1,0.4,0.2c0.1,0.1,0.3,0.2,0.4,0.3c0.1,0.1,0.2,0.2,0.3,0.4
				c0.1,0.1,0.2,0.3,0.2,0.4c0.1,0.1,0.1,0.3,0.1,0.5c0,0.1,0,0.3,0,0.5c0,0.2,0,0.3,0,0.5c0,0.1-0.1,0.3-0.1,0.5
				c-0.1,0.1-0.1,0.3-0.2,0.4c-0.1,0.1-0.2,0.3-0.3,0.4C185.6,172.4,184.9,172.7,184.3,172.7z"/>
			<path class="st2" d="M191.5,170.3L191.5,170.3"/>
			<path class="st1" d="M191.5,172.7c-0.2,0-0.3,0-0.5,0c-0.2,0-0.3-0.1-0.5-0.1c-0.2-0.1-0.3-0.1-0.4-0.2c-0.1-0.1-0.3-0.2-0.4-0.3
				c-0.1-0.1-0.2-0.2-0.3-0.4c-0.1-0.1-0.2-0.3-0.2-0.4c-0.1-0.2-0.1-0.3-0.1-0.5c0-0.2,0-0.3,0-0.5c0-0.2,0-0.3,0-0.5
				c0-0.2,0.1-0.3,0.1-0.5c0.1-0.1,0.1-0.3,0.2-0.4c0.1-0.1,0.2-0.3,0.3-0.4c0.9-0.9,2.5-0.9,3.4,0c0.1,0.1,0.2,0.2,0.3,0.4
				s0.2,0.3,0.2,0.4c0.1,0.1,0.1,0.3,0.1,0.5c0,0.1,0,0.3,0,0.5c0,0.2,0,0.3,0,0.5c0,0.1-0.1,0.3-0.1,0.5c-0.1,0.1-0.1,0.3-0.2,0.4
				s-0.2,0.3-0.3,0.4c-0.1,0.1-0.2,0.2-0.4,0.3c-0.1,0.1-0.3,0.2-0.4,0.2c-0.1,0.1-0.3,0.1-0.5,0.1
				C191.8,172.6,191.7,172.7,191.5,172.7z"/>
			<path class="st0" d="M201.1,172.7h-4.8v-4.8h4.8V172.7z"/>
			<path class="st2" d="M278.6,226.9H277"/>
			<path class="st1" d="M278.6,228.6H277c-0.9,0-1.7-0.8-1.7-1.7s0.8-1.7,1.7-1.7h1.6c0.9,0,1.7,0.8,1.7,1.7
				S279.5,228.6,278.6,228.6z"/>
			<path class="st2" d="M278.6,221.3H277"/>
			<path class="st1" d="M278.6,223H277c-0.9,0-1.7-0.8-1.7-1.7s0.8-1.7,1.7-1.7h1.6c0.9,0,1.7,0.8,1.7,1.7S279.5,223,278.6,223z"/>
			<path class="st2" d="M278.6,215.6H277"/>
			<path class="st1" d="M278.6,217.3H277c-0.9,0-1.7-0.8-1.7-1.7s0.8-1.7,1.7-1.7h1.6c0.9,0,1.7,0.8,1.7,1.7
				S279.5,217.3,278.6,217.3z"/>
			<path class="st2" d="M278.6,209.9H277"/>
			<path class="st1" d="M278.6,211.6H277c-0.9,0-1.7-0.8-1.7-1.7s0.8-1.7,1.7-1.7h1.6c0.9,0,1.7,0.8,1.7,1.7
				S279.5,211.6,278.6,211.6z"/>
			<path class="st2" d="M278.6,204.3H277"/>
			<path class="st1" d="M278.6,206H277c-0.9,0-1.7-0.8-1.7-1.7s0.8-1.7,1.7-1.7h1.6c0.9,0,1.7,0.8,1.7,1.7S279.5,206,278.6,206z"/>
			<path class="st2" d="M278.6,198.6H277"/>
			<path class="st1" d="M278.6,200.3H277c-0.9,0-1.7-0.8-1.7-1.7s0.8-1.7,1.7-1.7h1.6c0.9,0,1.7,0.8,1.7,1.7
				S279.5,200.3,278.6,200.3z"/>
			<path class="st2" d="M278.6,192.9H277"/>
			<path class="st1" d="M278.6,194.6H277c-0.9,0-1.7-0.8-1.7-1.7s0.8-1.7,1.7-1.7h1.6c0.9,0,1.7,0.8,1.7,1.7
				S279.5,194.6,278.6,194.6z"/>
			<path class="st2" d="M278.6,187.3H277"/>
			<path class="st1" d="M278.6,189H277c-0.9,0-1.7-0.8-1.7-1.7s0.8-1.7,1.7-1.7h1.6c0.9,0,1.7,0.8,1.7,1.7S279.5,189,278.6,189z"/>
			<path class="st2" d="M278.6,181.6H277"/>
			<path class="st1" d="M278.6,183.3H277c-0.9,0-1.7-0.8-1.7-1.7s0.8-1.7,1.7-1.7h1.6c0.9,0,1.7,0.8,1.7,1.7
				S279.5,183.3,278.6,183.3z"/>
			<path class="st2" d="M278.6,175.9H277"/>
			<path class="st1" d="M278.6,177.6H277c-0.9,0-1.7-0.8-1.7-1.7s0.8-1.7,1.7-1.7h1.6c0.9,0,1.7,0.8,1.7,1.7
				S279.5,177.6,278.6,177.6z"/>
			<path class="st0" d="M279.6,168.6L279.6,168.6l0.1,0l0.1,0l0.1,0l0.1,0l0.1,0l0.1,0l0,0.1l0,0.1l0,0.1l0,0.1l0,0.1l0,0.1l0,0.1
				l0,0.1v2l0,0.1l0,0.1l0,0.1l0,0.1l0,0.1l0,0.1l0,0.1l0,0.1l-0.1,0l-0.1,0l-0.1,0l-0.1,0l-0.1,0l-0.1,0l-0.1,0l-0.1,0H276l-0.1,0
				l-0.1,0l-0.1,0l-0.1,0l-0.1,0l-0.1,0l-0.1,0l-0.1,0l0-0.1l0-0.1l0-0.1l0-0.1l0-0.1l0-0.1l0-0.1l0-0.1v-2l0-0.1l0-0.1l0-0.1l0-0.1
				l0-0.1l0-0.1l0-0.1l0-0.1l0.1,0l0.1,0l0.1,0l0.1,0l0.1,0l0.1,0l0.1,0l0.1,0L279.6,168.6L279.6,168.6z"/>
			<path class="st1" d="M100.6,191.8c-0.6,0-1.1,0.5-1.1,1.1v14.2v14.2c0,0.6,0.5,1.1,1.1,1.1s1.1-0.5,1.1-1.1v-14.2v-14.2
				C101.7,192.3,101.2,191.8,100.6,191.8z"/>
			<path class="st1" d="M183.3,192.4h-82.7c-0.3,0-0.6,0.3-0.6,0.6s0.3,0.6,0.6,0.6h83c0.1,0,0.1,0,0.2,0c0.1,0,0.1-0.1,0.2-0.1
				l4.1-4.1h0.2l38.6,38.1c0,0,0,0,0,0l0,0c0,0,0,0,0,0c0,0,0.1,0.1,0.2,0.1c0.1,0,0.1,0,0.2,0h46.9h3.6c0.3,0,0.6-0.3,0.6-0.6
				s-0.3-0.6-0.6-0.6h-3.6h-46.6l-38.6-38.1l0,0c0,0,0,0,0,0l-15.6-16.1v-3.8l1.9-1.9h11.7l4.2,4.2c0.1,0.1,0.3,0.2,0.4,0.2
				s0.3-0.1,0.4-0.2c0.2-0.2,0.2-0.6,0-0.8l-4.4-4.4c-0.1-0.1-0.1-0.1-0.2-0.1c-0.1,0-0.1,0-0.2,0H175c0,0,0,0,0,0
				c-0.1,0-0.1,0-0.2,0c-0.1,0-0.1,0.1-0.2,0.1l-2.3,2.3c-0.1,0.1-0.1,0.1-0.1,0.2c0,0,0,0.1,0,0.1c0,0,0,0.1,0,0.1v4.2
				c0,0,0,0.1,0,0.1c0,0,0,0.1,0,0.1c0,0.1,0.1,0.1,0.1,0.1c0,0,0,0,0,0l0,0c0,0,0,0,0,0l15,15.5L183.3,192.4z"/>
			<path class="st1" d="M282.8,225.2c0-0.1-0.1-0.1-0.1-0.2l-2.1-2.2c-0.1-0.1-0.1-0.1-0.2-0.1c-0.1,0-0.1,0-0.2,0H280l-1.8-1.8
				c-0.2-0.2-0.6-0.2-0.8,0c-0.2,0.2-0.2,0.6,0,0.8l2,2c0.1,0.1,0.1,0.1,0.2,0.1c0.1,0,0.1,0,0.2,0h0.1l1.8,1.8v2.6l-1.8,1.8h-177
				l-6.1-6.1v-19.7v-13.5l26.8-26.8h71.5l3.1,3.1v3.3c0,0.3,0.3,0.6,0.6,0.6s0.6-0.3,0.6-0.6v-3.5c0,0,0,0,0-0.1c0-0.1,0-0.1,0-0.1
				c0-0.1-0.1-0.1-0.1-0.2l-3.4-3.4c-0.1-0.1-0.1-0.1-0.2-0.1c-0.1,0-0.1,0-0.2,0c0,0,0,0-0.1,0h-72c-0.1,0-0.1,0-0.2,0
				c-0.1,0-0.1,0.1-0.2,0.1l-27.2,27.2c0,0,0,0,0,0c0,0-0.1,0.1-0.1,0.2c0,0.1,0,0.1,0,0.2c0,0,0,0,0,0v12.4l-3.2-3.2
				c-0.1-0.1-0.1-0.1-0.2-0.1c-0.1,0-0.1,0-0.2,0c0,0,0,0,0,0H77.2h-4c-0.3,0-0.6,0.3-0.6,0.6s0.3,0.6,0.6,0.6h4h14.5l3.9,3.9v19.5
				l-1.2,1.2H43.9l-16-16V198l4.7-4.7c0.2-0.2,0.2-0.6,0-0.8c-0.2-0.2-0.6-0.2-0.8,0l-4.8,4.8c-0.1,0.1-0.1,0.1-0.1,0.2
				c0,0.1,0,0.1,0,0.2c0,0,0,0,0,0v11.7c0,0,0,0,0,0c0,0.1,0,0.1,0,0.2c0,0.1,0.1,0.1,0.1,0.2l16.3,16.3c0.1,0.1,0.1,0.1,0.2,0.1
				c0.1,0,0.1,0,0.2,0h51c0.1,0,0.1,0,0.2,0c0.1,0,0.1-0.1,0.2-0.1c0,0,0,0,0,0l1.2-1.2l6.1,6.1c0,0,0,0,0,0c0,0,0.1,0.1,0.2,0.1
				c0.1,0,0.1,0,0.2,0h177.5c0.1,0,0.1,0,0.2,0c0.1,0,0.1-0.1,0.2-0.1l2.1-2.2c0.1-0.1,0.1-0.1,0.1-0.2c0,0,0-0.1,0-0.1
				c0,0,0-0.1,0-0.1v-3.1c0,0,0-0.1,0-0.1C282.8,225.3,282.8,225.2,282.8,225.2z"/>
			<path class="st1" d="M278.4,215.6c0-0.3-0.3-0.6-0.6-0.6h-55.1l-45.2-45.2c-0.2-0.2-0.6-0.2-0.8,0c-0.2,0.2-0.2,0.6,0,0.8
				l45.3,45.3c0.1,0.1,0.1,0.1,0.2,0.1c0.1,0,0.1,0,0.2,0h55.3C278.1,216.2,278.4,215.9,278.4,215.6z"/>
			<path class="st1" d="M277.8,209.4h-53.6l-39.5-39.5c-0.2-0.2-0.6-0.2-0.8,0c-0.2,0.2-0.2,0.6,0,0.8l39.7,39.7
				c0.1,0.1,0.1,0.1,0.2,0.1c0.1,0,0.1,0,0.2,0h53.8c0.3,0,0.6-0.3,0.6-0.6S278.1,209.4,277.8,209.4z"/>
			<path class="st1" d="M282.8,168.1c0,0,0-0.1,0-0.1c0-0.1-0.1-0.1-0.1-0.2l-14.2-14.2c-0.1-0.1-0.1-0.1-0.2-0.1
				c-0.1,0-0.1,0-0.2,0H65.2c-0.1,0-0.1,0-0.2,0c-0.1,0-0.1,0.1-0.2,0.1c0,0,0,0,0,0l-24.1,24.1c-0.1,0.1-0.1,0.1-0.1,0.2
				c0,0.1,0,0.1,0,0.2c0,0,0,0,0,0v19.8l-8.8,8.8c-0.1,0.1-0.2,0.3-0.2,0.4c0,0.1,0,0.1,0,0.2s0.1,0.1,0.1,0.2l14.2,14.2
				c0,0,0,0,0,0c0,0,0.1,0.1,0.2,0.1c0.1,0,0.1,0,0.2,0h45.9c0.3,0,0.6-0.3,0.6-0.6s-0.3-0.6-0.6-0.6H46.5l-13.6-13.6l8.6-8.6
				c0,0,0,0,0,0c0,0,0.1-0.1,0.1-0.2c0-0.1,0-0.1,0-0.2c0,0,0,0,0,0v-19.8l23.8-23.8h202.4l13.9,13.9v8.8l-1.8,1.8h-1.5
				c-0.1,0-0.1,0-0.2,0c-0.1,0-0.1,0.1-0.2,0.1l-0.6,0.6c-0.1,0.1-0.1,0.1-0.1,0.2c0,0,0,0.1,0,0.1c0,0,0,0.1,0,0.1v1.4
				c0,0.3,0.3,0.6,0.6,0.6s0.6-0.3,0.6-0.6v-1.2l0.2-0.2h1.5c0.1,0,0.1,0,0.2,0c0.1,0,0.1-0.1,0.2-0.1l2.1-2.1
				c0.1-0.1,0.1-0.1,0.1-0.2c0,0,0-0.1,0-0.1c0,0,0-0.1,0-0.1L282.8,168.1C282.8,168.1,282.8,168.1,282.8,168.1z"/>
			<path class="st1" d="M61.8,203.1c0,0.1,0.1,0.1,0.1,0.2l4.3,4.2c0.1,0.1,0.1,0.1,0.2,0.1c0.1,0,0.1,0,0.2,0h6.6h18.9
				c0.3,0,0.6-0.3,0.6-0.6s-0.3-0.6-0.6-0.6H73.2h-6.4l-3.9-3.9V191L96,157.9h168.6l12.7,12.7c0.1,0.1,0.3,0.2,0.4,0.2
				s0.3-0.1,0.4-0.2c0.2-0.2,0.2-0.6,0-0.8L265.3,157c0,0,0,0,0,0c0,0-0.1-0.1-0.2-0.1c-0.1,0-0.1,0-0.2,0H95.8c-0.1,0-0.1,0-0.2,0
				c-0.1,0-0.1,0.1-0.2,0.1c0,0,0,0,0,0L62,190.4c-0.1,0.1-0.1,0.1-0.1,0.2c0,0.1,0,0.1,0,0.2c0,0,0,0,0,0v12v0
				C61.8,202.9,61.8,203,61.8,203.1z"/>
			<path class="st1" d="M277.8,176.5c0.3,0,0.6-0.3,0.6-0.6s-0.3-0.6-0.6-0.6h-55l-15.8-15.9c0,0,0,0,0,0c0,0-0.1-0.1-0.2-0.1
				c-0.1,0-0.1,0-0.2,0h-83.8c-0.1,0-0.1,0-0.2,0c-0.1,0-0.1,0.1-0.2,0.1c0,0,0,0,0,0L91.8,190c0,0,0,0,0,0c0,0-0.1,0.1-0.1,0.2
				c0,0.1,0,0.1,0,0.2c0,0,0,0,0,0v1.9H73.2c-0.3,0-0.6,0.3-0.6,0.6s0.3,0.6,0.6,0.6h18.9c0.3,0,0.6-0.3,0.6-0.6v-2.3l30.2-30.2
				h83.3l15.8,15.9c0.1,0.1,0.1,0.1,0.2,0.1c0.1,0,0.1,0,0.2,0H277.8z"/>
		</g>
	</g>
	<g class="st3">
		<rect x="0" y="127.7" class="st4" width="311.8" height="141.7"/>
		<rect x="14.2" y="141.9" class="st5" width="283.5" height="113.4"/>
		<g class="st4">
			<circle cx="283.5" cy="156.1" r="4.7"/>
			<circle cx="283.5" cy="241" r="4.7"/>
			<circle cx="28.3" cy="241" r="4.7"/>
			<circle cx="28.4" cy="156.1" r="4.7"/>
		</g>
		<g class="st4">
			<g>
				<circle cx="73.2" cy="192.9" r="1.4"/>
			</g>
			<g>
				<circle cx="73.2" cy="200" r="1.4"/>
			</g>
			<g>
				<circle cx="73.2" cy="207.1" r="1.4"/>
			</g>
			<path d="M53.8,186.3h-3.7c-1.2,0-2.1-1-2.1-2.1s1-2.1,2.1-2.1h3.7c1.2,0,2.1,1,2.1,2.1S55,186.3,53.8,186.3z"/>
			<path d="M53.8,218h-3.7c-1.2,0-2.1-1-2.1-2.1s1-2.1,2.1-2.1h3.7c1.2,0,2.1,1,2.1,2.1S55,218,53.8,218z"/>
			<g>
				<circle cx="32.1" cy="192.9" r="1.4"/>
			</g>
			<g>
				<circle cx="32.1" cy="207.1" r="1.4"/>
			</g>
			<g>
				<circle cx="177.1" cy="170.3" r="1.4"/>
			</g>
			<g>
				<circle cx="184.3" cy="170.3" r="1.4"/>
			</g>
			<g>
				<circle cx="191.5" cy="170.3" r="1.4"/>
			</g>
			<g>
				<circle cx="198.7" cy="170.3" r="1.4"/>
			</g>
			<g>
				<circle cx="277.8" cy="226.9" r="1.1"/>
			</g>
			<g>
				<circle cx="277.8" cy="221.3" r="1.1"/>
			</g>
			<g>
				<circle cx="277.8" cy="215.6" r="1.1"/>
			</g>
			<g>
				<circle cx="277.8" cy="209.9" r="1.1"/>
			</g>
			<g>
				<circle cx="277.8" cy="204.3" r="1.1"/>
			</g>
			<g>
				<circle cx="277.8" cy="198.6" r="1.1"/>
			</g>
			<g>
				<circle cx="277.8" cy="192.9" r="1.1"/>
			</g>
			<g>
				<circle cx="277.8" cy="187.3" r="1.1"/>
			</g>
			<g>
				<circle cx="277.8" cy="181.6" r="1.1"/>
			</g>
			<g>
				<circle cx="277.8" cy="175.9" r="1.1"/>
			</g>
			<g>
				<circle cx="277.8" cy="170.3" r="1.1"/>
			</g>
		</g>
	</g>
</g>
<g id="Components" class="st3">
	<rect x="148.5" y="38.9" class="st6" width="79.2" height="77.1"/>
	<rect x="148.5" y="50.8" class="st6" width="79.2" height="54.4"/>
	<circle class="st6" cx="153.6" cy="44" r="3.1"/>
	<circle class="st6" cx="222.7" cy="44" r="3.1"/>
	<circle class="st6" cx="153.6" cy="111" r="3.1"/>
	<circle class="st6" cx="222.7" cy="111" r="3.1"/>
	<circle class="st6" cx="52.7" cy="72.6" r="10.6"/>
</g>
</svg>
