EESchema Schematic File Version 4
EELAYER 30 0
EELAYER END
$Descr A4 11693 8268
encoding utf-8
Sheet 1 1
Title ""
Date ""
Rev ""
Comp ""
Comment1 ""
Comment2 ""
Comment3 ""
Comment4 ""
$EndDescr
$Comp
L Connector_Generic:Conn_01x11 J1
U 1 1 5DF4CBD8
P 4150 3150
F 0 "J1" H 4068 2425 50  0000 C CNN
F 1 "Conn_01x11" H 4068 2516 50  0000 C CNN
F 2 "Connector_JST:JST_PH_S11B-PH-K_1x11_P2.00mm_Horizontal" H 4150 3150 50  0001 C CNN
F 3 "~" H 4150 3150 50  0001 C CNN
F 4 "455-1726-ND" H 4150 3150 50  0001 C CNN "SKU"
	1    4150 3150
	-1   0    0    -1  
$EndComp
$Comp
L Connector_Generic:Conn_01x04 J3
U 1 1 5DF4D94E
P 6600 2450
F 0 "J3" H 6700 2450 50  0000 L CNN
F 1 "display_i2c" H 6700 2550 50  0000 L CNN
F 2 "Connector_PinSocket_2.54mm:PinSocket_1x04_P2.54mm_Vertical" H 6600 2450 50  0001 C CNN
F 3 "~" H 6600 2450 50  0001 C CNN
	1    6600 2450
	1    0    0    1   
$EndComp
Wire Wire Line
	4350 3250 4700 3250
Wire Wire Line
	4700 3150 4350 3150
Wire Wire Line
	4350 3050 4700 3050
Wire Wire Line
	4700 2950 4350 2950
Wire Wire Line
	4350 2850 4700 2850
Wire Wire Line
	4700 2750 4350 2750
Wire Wire Line
	4350 2650 4700 2650
Wire Wire Line
	4350 3350 4700 3350
$Comp
L power:GND #PWR0101
U 1 1 5DF5C732
P 4350 3550
F 0 "#PWR0101" H 4350 3300 50  0001 C CNN
F 1 "GND" V 4355 3422 50  0000 R CNN
F 2 "" H 4350 3550 50  0001 C CNN
F 3 "" H 4350 3550 50  0001 C CNN
	1    4350 3550
	0    -1   1    0   
$EndComp
$Comp
L power:+3.3V #PWR0102
U 1 1 5DF5CEA2
P 4350 3650
F 0 "#PWR0102" H 4350 3500 50  0001 C CNN
F 1 "+3.3V" V 4365 3778 50  0000 L CNN
F 2 "" H 4350 3650 50  0001 C CNN
F 3 "" H 4350 3650 50  0001 C CNN
	1    4350 3650
	0    1    -1   0   
$EndComp
$Comp
L Device:Rotary_Encoder_Switch SW1
U 1 1 5F336558
P 6650 4400
F 0 "SW1" H 6650 4767 50  0000 C CNN
F 1 "Rotary_Encoder_Switch" H 6650 4676 50  0000 C CNN
F 2 "Rotary_Encoder:RotaryEncoder_Alps_EC11E-Switch_Vertical_H20mm" H 6500 4560 50  0001 C CNN
F 3 "~" H 6650 4660 50  0001 C CNN
	1    6650 4400
	1    0    0    -1  
$EndComp
$Comp
L power:GND #PWR0103
U 1 1 5F33A550
P 6250 4400
F 0 "#PWR0103" H 6250 4150 50  0001 C CNN
F 1 "GND" V 6255 4272 50  0000 R CNN
F 2 "" H 6250 4400 50  0001 C CNN
F 3 "" H 6250 4400 50  0001 C CNN
	1    6250 4400
	0    1    1    0   
$EndComp
Wire Wire Line
	6250 4400 6350 4400
Wire Wire Line
	6050 4300 5550 4300
Wire Wire Line
	6350 4300 6050 4300
Connection ~ 6050 4300
Wire Wire Line
	6050 4300 6050 4150
$Comp
L Device:R R2
U 1 1 5F33D80B
P 6050 4000
F 0 "R2" H 6120 4046 50  0000 L CNN
F 1 "10K" H 6120 3955 50  0000 L CNN
F 2 "Resistor_SMD:R_1206_3216Metric_Pad1.42x1.75mm_HandSolder" V 5980 4000 50  0001 C CNN
F 3 "~" H 6050 4000 50  0001 C CNN
	1    6050 4000
	1    0    0    -1  
$EndComp
$Comp
L Device:R R1
U 1 1 5F33DE96
P 5750 4000
F 0 "R1" H 5820 4046 50  0000 L CNN
F 1 "10K" H 5820 3955 50  0000 L CNN
F 2 "Resistor_SMD:R_1206_3216Metric_Pad1.42x1.75mm_HandSolder" V 5680 4000 50  0001 C CNN
F 3 "~" H 5750 4000 50  0001 C CNN
	1    5750 4000
	1    0    0    -1  
$EndComp
Wire Wire Line
	5750 4500 5550 4500
Wire Wire Line
	6350 4500 5750 4500
Connection ~ 5750 4500
Wire Wire Line
	5750 4500 5750 4150
Text GLabel 5550 4300 0    50   Input ~ 0
E1
Text GLabel 5550 4500 0    50   Input ~ 0
E2
Text GLabel 6600 3750 0    50   Input ~ 0
ESwitch
Wire Wire Line
	6600 3750 6850 3750
Wire Wire Line
	7200 3750 7200 4300
Wire Wire Line
	7200 4300 6950 4300
$Comp
L power:GND #PWR0104
U 1 1 5F341110
P 7200 4500
F 0 "#PWR0104" H 7200 4250 50  0001 C CNN
F 1 "GND" V 7205 4372 50  0000 R CNN
F 2 "" H 7200 4500 50  0001 C CNN
F 3 "" H 7200 4500 50  0001 C CNN
	1    7200 4500
	0    -1   -1   0   
$EndComp
Wire Wire Line
	7200 4500 6950 4500
$Comp
L Device:R R3
U 1 1 5F341BE8
P 6850 3450
F 0 "R3" H 6920 3496 50  0000 L CNN
F 1 "10K" H 6920 3405 50  0000 L CNN
F 2 "Resistor_SMD:R_1206_3216Metric_Pad1.42x1.75mm_HandSolder" V 6780 3450 50  0001 C CNN
F 3 "~" H 6850 3450 50  0001 C CNN
	1    6850 3450
	1    0    0    -1  
$EndComp
Connection ~ 6850 3750
Wire Wire Line
	6850 3750 7200 3750
Wire Wire Line
	6850 3600 6850 3750
$Comp
L power:+3.3V #PWR0105
U 1 1 5F343F19
P 5900 3650
F 0 "#PWR0105" H 5900 3500 50  0001 C CNN
F 1 "+3.3V" V 5915 3778 50  0000 L CNN
F 2 "" H 5900 3650 50  0001 C CNN
F 3 "" H 5900 3650 50  0001 C CNN
	1    5900 3650
	1    0    0    -1  
$EndComp
$Comp
L power:+3.3V #PWR0106
U 1 1 5F3448AA
P 6850 3300
F 0 "#PWR0106" H 6850 3150 50  0001 C CNN
F 1 "+3.3V" V 6865 3428 50  0000 L CNN
F 2 "" H 6850 3300 50  0001 C CNN
F 3 "" H 6850 3300 50  0001 C CNN
	1    6850 3300
	1    0    0    -1  
$EndComp
Wire Wire Line
	5900 3700 5750 3700
Wire Wire Line
	5750 3700 5750 3850
Wire Wire Line
	5900 3700 6050 3700
Wire Wire Line
	6050 3700 6050 3850
Connection ~ 5900 3700
Wire Wire Line
	5900 3650 5900 3700
$Comp
L power:GND #PWR0107
U 1 1 5F348084
P 6200 2550
F 0 "#PWR0107" H 6200 2300 50  0001 C CNN
F 1 "GND" V 6205 2422 50  0000 R CNN
F 2 "" H 6200 2550 50  0001 C CNN
F 3 "" H 6200 2550 50  0001 C CNN
	1    6200 2550
	0    1    1    0   
$EndComp
Wire Wire Line
	6200 2550 6400 2550
$Comp
L power:+3.3V #PWR0108
U 1 1 5F348A48
P 6200 2450
F 0 "#PWR0108" H 6200 2300 50  0001 C CNN
F 1 "+3.3V" V 6215 2578 50  0000 L CNN
F 2 "" H 6200 2450 50  0001 C CNN
F 3 "" H 6200 2450 50  0001 C CNN
	1    6200 2450
	0    -1   -1   0   
$EndComp
Wire Wire Line
	6200 2450 6400 2450
Text GLabel 6150 2350 0    50   Input ~ 0
SCL
Wire Wire Line
	6150 2350 6400 2350
Text GLabel 6150 2250 0    50   Input ~ 0
SDA
Wire Wire Line
	6150 2250 6400 2250
Text GLabel 4700 3350 2    50   Input ~ 0
SCL
Text GLabel 4700 3450 2    50   Input ~ 0
SDA
Wire Wire Line
	4350 3450 4700 3450
Text GLabel 4700 2650 2    50   Input ~ 0
E2
Text GLabel 4700 2750 2    50   Input ~ 0
E1
Text GLabel 4700 2850 2    50   Input ~ 0
ESwitch
$EndSCHEMATC
