(kicad_pcb (version 20171130) (host pcbnew "(5.1.5)-3")

  (general
    (thickness 1.6)
    (drawings 4)
    (tracks 60)
    (zones 0)
    (modules 6)
    (nets 12)
  )

  (page A4)
  (layers
    (0 F.Cu signal)
    (31 B.Cu signal)
    (32 B.Adhes user hide)
    (33 F.Adhes user hide)
    (34 B.Paste user hide)
    (35 F.Paste user hide)
    (36 B.SilkS user hide)
    (37 F.SilkS user hide)
    (38 B.Mask user hide)
    (39 F.Mask user hide)
    (40 Dwgs.User user hide)
    (41 Cmts.User user hide)
    (42 Eco1.User user hide)
    (43 Eco2.User user hide)
    (44 Edge.Cuts user)
    (45 Margin user hide)
    (46 B.CrtYd user)
    (47 F.CrtYd user hide)
    (48 B.Fab user hide)
    (49 F.Fab user hide)
  )

  (setup
    (last_trace_width 0.6)
    (user_trace_width 0.2)
    (trace_clearance 0.3)
    (zone_clearance 0.508)
    (zone_45_only no)
    (trace_min 0.15)
    (via_size 0.8)
    (via_drill 0.4)
    (via_min_size 0.4)
    (via_min_drill 0.3)
    (uvia_size 0.3)
    (uvia_drill 0.1)
    (uvias_allowed no)
    (uvia_min_size 0.2)
    (uvia_min_drill 0.1)
    (edge_width 0.05)
    (segment_width 0.2)
    (pcb_text_width 0.3)
    (pcb_text_size 1.5 1.5)
    (mod_edge_width 0.12)
    (mod_text_size 1 1)
    (mod_text_width 0.15)
    (pad_size 1.2 1.75)
    (pad_drill 0.75)
    (pad_to_mask_clearance 0.051)
    (solder_mask_min_width 0.25)
    (aux_axis_origin 0 0)
    (visible_elements 7FFFFFFF)
    (pcbplotparams
      (layerselection 0x010fc_ffffffff)
      (usegerberextensions false)
      (usegerberattributes false)
      (usegerberadvancedattributes false)
      (creategerberjobfile false)
      (excludeedgelayer true)
      (linewidth 0.100000)
      (plotframeref false)
      (viasonmask false)
      (mode 1)
      (useauxorigin false)
      (hpglpennumber 1)
      (hpglpenspeed 20)
      (hpglpendiameter 15.000000)
      (psnegative false)
      (psa4output false)
      (plotreference true)
      (plotvalue true)
      (plotinvisibletext false)
      (padsonsilk false)
      (subtractmaskfromsilk false)
      (outputformat 1)
      (mirror false)
      (drillshape 0)
      (scaleselection 1)
      (outputdirectory ""))
  )

  (net 0 "")
  (net 1 +3V3)
  (net 2 GND)
  (net 3 "Net-(J1-Pad7)")
  (net 4 "Net-(J1-Pad6)")
  (net 5 "Net-(J1-Pad5)")
  (net 6 "Net-(J1-Pad4)")
  (net 7 SDA)
  (net 8 SCL)
  (net 9 ESwitch)
  (net 10 E2)
  (net 11 E1)

  (net_class Default "This is the default net class."
    (clearance 0.3)
    (trace_width 0.6)
    (via_dia 0.8)
    (via_drill 0.4)
    (uvia_dia 0.3)
    (uvia_drill 0.1)
    (add_net E1)
    (add_net E2)
    (add_net ESwitch)
    (add_net "Net-(J1-Pad4)")
    (add_net "Net-(J1-Pad5)")
    (add_net "Net-(J1-Pad6)")
    (add_net "Net-(J1-Pad7)")
    (add_net SCL)
    (add_net SDA)
  )

  (net_class Cap ""
    (clearance 0.5)
    (trace_width 0.15)
    (via_dia 0.8)
    (via_drill 0.4)
    (uvia_dia 0.3)
    (uvia_drill 0.1)
  )

  (net_class Power ""
    (clearance 0.3)
    (trace_width 0.8)
    (via_dia 0.8)
    (via_drill 0.4)
    (uvia_dia 0.3)
    (uvia_drill 0.1)
    (add_net +3V3)
    (add_net GND)
  )

  (module Rotary_Encoder:RotaryEncoder_Alps_EC11E-Switch_Vertical_H20mm (layer B.Cu) (tedit 5A74C8CB) (tstamp 5F33D414)
    (at 120.83 68 180)
    (descr "Alps rotary encoder, EC12E... with switch, vertical shaft, http://www.alps.com/prod/info/E/HTML/Encoder/Incremental/EC11/EC11E15204A3.html")
    (tags "rotary encoder")
    (path /5F336558)
    (fp_text reference SW1 (at 2.8 4.7) (layer B.SilkS)
      (effects (font (size 1 1) (thickness 0.15)) (justify mirror))
    )
    (fp_text value Rotary_Encoder_Switch (at 7.5 -10.4) (layer B.Fab)
      (effects (font (size 1 1) (thickness 0.15)) (justify mirror))
    )
    (fp_circle (center 7.5 -2.5) (end 10.5 -2.5) (layer B.Fab) (width 0.12))
    (fp_circle (center 7.5 -2.5) (end 10.5 -2.5) (layer B.SilkS) (width 0.12))
    (fp_line (start 16 -9.6) (end -1.5 -9.6) (layer B.CrtYd) (width 0.05))
    (fp_line (start 16 -9.6) (end 16 4.6) (layer B.CrtYd) (width 0.05))
    (fp_line (start -1.5 4.6) (end -1.5 -9.6) (layer B.CrtYd) (width 0.05))
    (fp_line (start -1.5 4.6) (end 16 4.6) (layer B.CrtYd) (width 0.05))
    (fp_line (start 2.5 3.3) (end 13.5 3.3) (layer B.Fab) (width 0.12))
    (fp_line (start 13.5 3.3) (end 13.5 -8.3) (layer B.Fab) (width 0.12))
    (fp_line (start 13.5 -8.3) (end 1.5 -8.3) (layer B.Fab) (width 0.12))
    (fp_line (start 1.5 -8.3) (end 1.5 2.2) (layer B.Fab) (width 0.12))
    (fp_line (start 1.5 2.2) (end 2.5 3.3) (layer B.Fab) (width 0.12))
    (fp_line (start 9.5 3.4) (end 13.6 3.4) (layer B.SilkS) (width 0.12))
    (fp_line (start 13.6 -8.4) (end 9.5 -8.4) (layer B.SilkS) (width 0.12))
    (fp_line (start 5.5 -8.4) (end 1.4 -8.4) (layer B.SilkS) (width 0.12))
    (fp_line (start 5.5 3.4) (end 1.4 3.4) (layer B.SilkS) (width 0.12))
    (fp_line (start 1.4 3.4) (end 1.4 -8.4) (layer B.SilkS) (width 0.12))
    (fp_line (start 0 1.3) (end -0.3 1.6) (layer B.SilkS) (width 0.12))
    (fp_line (start -0.3 1.6) (end 0.3 1.6) (layer B.SilkS) (width 0.12))
    (fp_line (start 0.3 1.6) (end 0 1.3) (layer B.SilkS) (width 0.12))
    (fp_line (start 7.5 0.5) (end 7.5 -5.5) (layer B.Fab) (width 0.12))
    (fp_line (start 4.5 -2.5) (end 10.5 -2.5) (layer B.Fab) (width 0.12))
    (fp_line (start 13.6 3.4) (end 13.6 1) (layer B.SilkS) (width 0.12))
    (fp_line (start 13.6 -1.2) (end 13.6 -3.8) (layer B.SilkS) (width 0.12))
    (fp_line (start 13.6 -6) (end 13.6 -8.4) (layer B.SilkS) (width 0.12))
    (fp_line (start 7.5 -2) (end 7.5 -3) (layer B.SilkS) (width 0.12))
    (fp_line (start 7 -2.5) (end 8 -2.5) (layer B.SilkS) (width 0.12))
    (fp_text user %R (at 11.1 -6.3) (layer B.Fab)
      (effects (font (size 1 1) (thickness 0.15)) (justify mirror))
    )
    (pad A thru_hole rect (at 0 0 180) (size 2 2) (drill 1) (layers *.Cu *.Mask)
      (net 11 E1))
    (pad C thru_hole circle (at 0 -2.5 180) (size 2 2) (drill 1) (layers *.Cu *.Mask)
      (net 2 GND))
    (pad B thru_hole circle (at 0 -5 180) (size 2 2) (drill 1) (layers *.Cu *.Mask)
      (net 10 E2))
    (pad MP thru_hole rect (at 7.5 3.1 180) (size 3.2 2) (drill oval 2.8 1.5) (layers *.Cu *.Mask))
    (pad MP thru_hole rect (at 7.5 -8.1 180) (size 3.2 2) (drill oval 2.8 1.5) (layers *.Cu *.Mask))
    (pad S2 thru_hole circle (at 14.5 0 180) (size 2 2) (drill 1) (layers *.Cu *.Mask)
      (net 2 GND))
    (pad S1 thru_hole circle (at 14.5 -5 180) (size 2 2) (drill 1) (layers *.Cu *.Mask)
      (net 9 ESwitch))
    (model ${KISYS3DMOD}/Rotary_Encoder.3dshapes/RotaryEncoder_Alps_EC11E-Switch_Vertical_H20mm.wrl
      (at (xyz 0 0 0))
      (scale (xyz 1 1 1))
      (rotate (xyz 0 0 0))
    )
  )

  (module Resistor_SMD:R_1206_3216Metric_Pad1.42x1.75mm_HandSolder (layer F.Cu) (tedit 5B301BBD) (tstamp 5F33C639)
    (at 129 78 180)
    (descr "Resistor SMD 1206 (3216 Metric), square (rectangular) end terminal, IPC_7351 nominal with elongated pad for handsoldering. (Body size source: http://www.tortai-tech.com/upload/download/2011102023233369053.pdf), generated with kicad-footprint-generator")
    (tags "resistor handsolder")
    (path /5F341BE8)
    (attr smd)
    (fp_text reference R3 (at 0 -1.82) (layer F.SilkS)
      (effects (font (size 1 1) (thickness 0.15)))
    )
    (fp_text value 10K (at 0 1.82) (layer F.Fab)
      (effects (font (size 1 1) (thickness 0.15)))
    )
    (fp_text user %R (at 0 0) (layer F.Fab)
      (effects (font (size 0.8 0.8) (thickness 0.12)))
    )
    (fp_line (start 2.45 1.12) (end -2.45 1.12) (layer F.CrtYd) (width 0.05))
    (fp_line (start 2.45 -1.12) (end 2.45 1.12) (layer F.CrtYd) (width 0.05))
    (fp_line (start -2.45 -1.12) (end 2.45 -1.12) (layer F.CrtYd) (width 0.05))
    (fp_line (start -2.45 1.12) (end -2.45 -1.12) (layer F.CrtYd) (width 0.05))
    (fp_line (start -0.602064 0.91) (end 0.602064 0.91) (layer F.SilkS) (width 0.12))
    (fp_line (start -0.602064 -0.91) (end 0.602064 -0.91) (layer F.SilkS) (width 0.12))
    (fp_line (start 1.6 0.8) (end -1.6 0.8) (layer F.Fab) (width 0.1))
    (fp_line (start 1.6 -0.8) (end 1.6 0.8) (layer F.Fab) (width 0.1))
    (fp_line (start -1.6 -0.8) (end 1.6 -0.8) (layer F.Fab) (width 0.1))
    (fp_line (start -1.6 0.8) (end -1.6 -0.8) (layer F.Fab) (width 0.1))
    (pad 2 smd roundrect (at 1.4875 0 180) (size 1.425 1.75) (layers F.Cu F.Paste F.Mask) (roundrect_rratio 0.175439)
      (net 9 ESwitch))
    (pad 1 smd roundrect (at -1.4875 0 180) (size 1.425 1.75) (layers F.Cu F.Paste F.Mask) (roundrect_rratio 0.175439)
      (net 1 +3V3))
    (model ${KISYS3DMOD}/Resistor_SMD.3dshapes/R_1206_3216Metric.wrl
      (at (xyz 0 0 0))
      (scale (xyz 1 1 1))
      (rotate (xyz 0 0 0))
    )
  )

  (module Resistor_SMD:R_1206_3216Metric_Pad1.42x1.75mm_HandSolder (layer F.Cu) (tedit 5B301BBD) (tstamp 5F33C555)
    (at 129 68 180)
    (descr "Resistor SMD 1206 (3216 Metric), square (rectangular) end terminal, IPC_7351 nominal with elongated pad for handsoldering. (Body size source: http://www.tortai-tech.com/upload/download/2011102023233369053.pdf), generated with kicad-footprint-generator")
    (tags "resistor handsolder")
    (path /5F33D80B)
    (attr smd)
    (fp_text reference R2 (at 0 -1.82) (layer F.SilkS)
      (effects (font (size 1 1) (thickness 0.15)))
    )
    (fp_text value 10K (at 0 1.82) (layer F.Fab)
      (effects (font (size 1 1) (thickness 0.15)))
    )
    (fp_text user %R (at 0 0) (layer F.Fab)
      (effects (font (size 0.8 0.8) (thickness 0.12)))
    )
    (fp_line (start 2.45 1.12) (end -2.45 1.12) (layer F.CrtYd) (width 0.05))
    (fp_line (start 2.45 -1.12) (end 2.45 1.12) (layer F.CrtYd) (width 0.05))
    (fp_line (start -2.45 -1.12) (end 2.45 -1.12) (layer F.CrtYd) (width 0.05))
    (fp_line (start -2.45 1.12) (end -2.45 -1.12) (layer F.CrtYd) (width 0.05))
    (fp_line (start -0.602064 0.91) (end 0.602064 0.91) (layer F.SilkS) (width 0.12))
    (fp_line (start -0.602064 -0.91) (end 0.602064 -0.91) (layer F.SilkS) (width 0.12))
    (fp_line (start 1.6 0.8) (end -1.6 0.8) (layer F.Fab) (width 0.1))
    (fp_line (start 1.6 -0.8) (end 1.6 0.8) (layer F.Fab) (width 0.1))
    (fp_line (start -1.6 -0.8) (end 1.6 -0.8) (layer F.Fab) (width 0.1))
    (fp_line (start -1.6 0.8) (end -1.6 -0.8) (layer F.Fab) (width 0.1))
    (pad 2 smd roundrect (at 1.4875 0 180) (size 1.425 1.75) (layers F.Cu F.Paste F.Mask) (roundrect_rratio 0.175439)
      (net 11 E1))
    (pad 1 smd roundrect (at -1.4875 0 180) (size 1.425 1.75) (layers F.Cu F.Paste F.Mask) (roundrect_rratio 0.175439)
      (net 1 +3V3))
    (model ${KISYS3DMOD}/Resistor_SMD.3dshapes/R_1206_3216Metric.wrl
      (at (xyz 0 0 0))
      (scale (xyz 1 1 1))
      (rotate (xyz 0 0 0))
    )
  )

  (module Resistor_SMD:R_1206_3216Metric_Pad1.42x1.75mm_HandSolder (layer F.Cu) (tedit 5B301BBD) (tstamp 5F33C669)
    (at 129 73 180)
    (descr "Resistor SMD 1206 (3216 Metric), square (rectangular) end terminal, IPC_7351 nominal with elongated pad for handsoldering. (Body size source: http://www.tortai-tech.com/upload/download/2011102023233369053.pdf), generated with kicad-footprint-generator")
    (tags "resistor handsolder")
    (path /5F33DE96)
    (attr smd)
    (fp_text reference R1 (at 0 -1.82) (layer F.SilkS)
      (effects (font (size 1 1) (thickness 0.15)))
    )
    (fp_text value 10K (at 0 1.82) (layer F.Fab)
      (effects (font (size 1 1) (thickness 0.15)))
    )
    (fp_text user %R (at 0 0) (layer F.Fab)
      (effects (font (size 0.8 0.8) (thickness 0.12)))
    )
    (fp_line (start 2.45 1.12) (end -2.45 1.12) (layer F.CrtYd) (width 0.05))
    (fp_line (start 2.45 -1.12) (end 2.45 1.12) (layer F.CrtYd) (width 0.05))
    (fp_line (start -2.45 -1.12) (end 2.45 -1.12) (layer F.CrtYd) (width 0.05))
    (fp_line (start -2.45 1.12) (end -2.45 -1.12) (layer F.CrtYd) (width 0.05))
    (fp_line (start -0.602064 0.91) (end 0.602064 0.91) (layer F.SilkS) (width 0.12))
    (fp_line (start -0.602064 -0.91) (end 0.602064 -0.91) (layer F.SilkS) (width 0.12))
    (fp_line (start 1.6 0.8) (end -1.6 0.8) (layer F.Fab) (width 0.1))
    (fp_line (start 1.6 -0.8) (end 1.6 0.8) (layer F.Fab) (width 0.1))
    (fp_line (start -1.6 -0.8) (end 1.6 -0.8) (layer F.Fab) (width 0.1))
    (fp_line (start -1.6 0.8) (end -1.6 -0.8) (layer F.Fab) (width 0.1))
    (pad 2 smd roundrect (at 1.4875 0 180) (size 1.425 1.75) (layers F.Cu F.Paste F.Mask) (roundrect_rratio 0.175439)
      (net 10 E2))
    (pad 1 smd roundrect (at -1.4875 0 180) (size 1.425 1.75) (layers F.Cu F.Paste F.Mask) (roundrect_rratio 0.175439)
      (net 1 +3V3))
    (model ${KISYS3DMOD}/Resistor_SMD.3dshapes/R_1206_3216Metric.wrl
      (at (xyz 0 0 0))
      (scale (xyz 1 1 1))
      (rotate (xyz 0 0 0))
    )
  )

  (module Connector_PinSocket_2.54mm:PinSocket_1x04_P2.54mm_Vertical (layer B.Cu) (tedit 5A19A429) (tstamp 5F33CEA7)
    (at 165.1 60 90)
    (descr "Through hole straight socket strip, 1x04, 2.54mm pitch, single row (from Kicad 4.0.7), script generated")
    (tags "Through hole socket strip THT 1x04 2.54mm single row")
    (path /5DF4D94E)
    (fp_text reference J3 (at 0 2.77 270) (layer B.SilkS)
      (effects (font (size 1 1) (thickness 0.15)) (justify mirror))
    )
    (fp_text value display_i2c (at 0 -10.39 270) (layer B.Fab)
      (effects (font (size 1 1) (thickness 0.15)) (justify mirror))
    )
    (fp_text user %R (at 0 -3.81) (layer B.Fab)
      (effects (font (size 1 1) (thickness 0.15)) (justify mirror))
    )
    (fp_line (start -1.8 -9.4) (end -1.8 1.8) (layer B.CrtYd) (width 0.05))
    (fp_line (start 1.75 -9.4) (end -1.8 -9.4) (layer B.CrtYd) (width 0.05))
    (fp_line (start 1.75 1.8) (end 1.75 -9.4) (layer B.CrtYd) (width 0.05))
    (fp_line (start -1.8 1.8) (end 1.75 1.8) (layer B.CrtYd) (width 0.05))
    (fp_line (start 0 1.33) (end 1.33 1.33) (layer B.SilkS) (width 0.12))
    (fp_line (start 1.33 1.33) (end 1.33 0) (layer B.SilkS) (width 0.12))
    (fp_line (start 1.33 -1.27) (end 1.33 -8.95) (layer B.SilkS) (width 0.12))
    (fp_line (start -1.33 -8.95) (end 1.33 -8.95) (layer B.SilkS) (width 0.12))
    (fp_line (start -1.33 -1.27) (end -1.33 -8.95) (layer B.SilkS) (width 0.12))
    (fp_line (start -1.33 -1.27) (end 1.33 -1.27) (layer B.SilkS) (width 0.12))
    (fp_line (start -1.27 -8.89) (end -1.27 1.27) (layer B.Fab) (width 0.1))
    (fp_line (start 1.27 -8.89) (end -1.27 -8.89) (layer B.Fab) (width 0.1))
    (fp_line (start 1.27 0.635) (end 1.27 -8.89) (layer B.Fab) (width 0.1))
    (fp_line (start 0.635 1.27) (end 1.27 0.635) (layer B.Fab) (width 0.1))
    (fp_line (start -1.27 1.27) (end 0.635 1.27) (layer B.Fab) (width 0.1))
    (pad 4 thru_hole oval (at 0 -7.62 90) (size 1.7 1.7) (drill 1) (layers *.Cu *.Mask)
      (net 7 SDA))
    (pad 3 thru_hole oval (at 0 -5.08 90) (size 1.7 1.7) (drill 1) (layers *.Cu *.Mask)
      (net 8 SCL))
    (pad 2 thru_hole oval (at 0 -2.54 90) (size 1.7 1.7) (drill 1) (layers *.Cu *.Mask)
      (net 1 +3V3))
    (pad 1 thru_hole rect (at 0 0 90) (size 1.7 1.7) (drill 1) (layers *.Cu *.Mask)
      (net 2 GND))
    (model ${KISYS3DMOD}/Connector_PinSocket_2.54mm.3dshapes/PinSocket_1x04_P2.54mm_Vertical.wrl
      (at (xyz 0 0 0))
      (scale (xyz 1 1 1))
      (rotate (xyz 0 0 0))
    )
  )

  (module Connector_JST:JST_PH_S11B-PH-K_1x11_P2.00mm_Horizontal (layer B.Cu) (tedit 5B7745C6) (tstamp 5F33C993)
    (at 193 60 270)
    (descr "JST PH series connector, S11B-PH-K (http://www.jst-mfg.com/product/pdf/eng/ePH.pdf), generated with kicad-footprint-generator")
    (tags "connector JST PH top entry")
    (path /5DF4CBD8)
    (fp_text reference J1 (at 10 2.55 270) (layer B.SilkS)
      (effects (font (size 1 1) (thickness 0.15)) (justify mirror))
    )
    (fp_text value Conn_01x11 (at 10 -7.45 270) (layer B.Fab)
      (effects (font (size 1 1) (thickness 0.15)) (justify mirror))
    )
    (fp_text user %R (at 10 -2.5 270) (layer B.Fab)
      (effects (font (size 1 1) (thickness 0.15)) (justify mirror))
    )
    (fp_line (start 0.5 -1.375) (end 0 -0.875) (layer B.Fab) (width 0.1))
    (fp_line (start -0.5 -1.375) (end 0.5 -1.375) (layer B.Fab) (width 0.1))
    (fp_line (start 0 -0.875) (end -0.5 -1.375) (layer B.Fab) (width 0.1))
    (fp_line (start -0.86 -0.14) (end -0.86 1.075) (layer B.SilkS) (width 0.12))
    (fp_line (start 21.25 -0.25) (end -1.25 -0.25) (layer B.Fab) (width 0.1))
    (fp_line (start 21.25 1.35) (end 21.25 -0.25) (layer B.Fab) (width 0.1))
    (fp_line (start 21.95 1.35) (end 21.25 1.35) (layer B.Fab) (width 0.1))
    (fp_line (start 21.95 -6.25) (end 21.95 1.35) (layer B.Fab) (width 0.1))
    (fp_line (start -1.95 -6.25) (end 21.95 -6.25) (layer B.Fab) (width 0.1))
    (fp_line (start -1.95 1.35) (end -1.95 -6.25) (layer B.Fab) (width 0.1))
    (fp_line (start -1.25 1.35) (end -1.95 1.35) (layer B.Fab) (width 0.1))
    (fp_line (start -1.25 -0.25) (end -1.25 1.35) (layer B.Fab) (width 0.1))
    (fp_line (start 22.45 1.85) (end -2.45 1.85) (layer B.CrtYd) (width 0.05))
    (fp_line (start 22.45 -6.75) (end 22.45 1.85) (layer B.CrtYd) (width 0.05))
    (fp_line (start -2.45 -6.75) (end 22.45 -6.75) (layer B.CrtYd) (width 0.05))
    (fp_line (start -2.45 1.85) (end -2.45 -6.75) (layer B.CrtYd) (width 0.05))
    (fp_line (start -0.8 -4.1) (end -0.8 -6.36) (layer B.SilkS) (width 0.12))
    (fp_line (start -0.3 -4.1) (end -0.3 -6.36) (layer B.SilkS) (width 0.12))
    (fp_line (start 20.3 -2.5) (end 21.3 -2.5) (layer B.SilkS) (width 0.12))
    (fp_line (start 20.3 -4.1) (end 20.3 -2.5) (layer B.SilkS) (width 0.12))
    (fp_line (start 21.3 -4.1) (end 20.3 -4.1) (layer B.SilkS) (width 0.12))
    (fp_line (start 21.3 -2.5) (end 21.3 -4.1) (layer B.SilkS) (width 0.12))
    (fp_line (start -0.3 -2.5) (end -1.3 -2.5) (layer B.SilkS) (width 0.12))
    (fp_line (start -0.3 -4.1) (end -0.3 -2.5) (layer B.SilkS) (width 0.12))
    (fp_line (start -1.3 -4.1) (end -0.3 -4.1) (layer B.SilkS) (width 0.12))
    (fp_line (start -1.3 -2.5) (end -1.3 -4.1) (layer B.SilkS) (width 0.12))
    (fp_line (start 22.06 -0.14) (end 21.14 -0.14) (layer B.SilkS) (width 0.12))
    (fp_line (start -2.06 -0.14) (end -1.14 -0.14) (layer B.SilkS) (width 0.12))
    (fp_line (start 19.5 -2) (end 19.5 -6.36) (layer B.SilkS) (width 0.12))
    (fp_line (start 0.5 -2) (end 19.5 -2) (layer B.SilkS) (width 0.12))
    (fp_line (start 0.5 -6.36) (end 0.5 -2) (layer B.SilkS) (width 0.12))
    (fp_line (start 21.14 -0.14) (end 20.86 -0.14) (layer B.SilkS) (width 0.12))
    (fp_line (start 21.14 1.46) (end 21.14 -0.14) (layer B.SilkS) (width 0.12))
    (fp_line (start 22.06 1.46) (end 21.14 1.46) (layer B.SilkS) (width 0.12))
    (fp_line (start 22.06 -6.36) (end 22.06 1.46) (layer B.SilkS) (width 0.12))
    (fp_line (start -2.06 -6.36) (end 22.06 -6.36) (layer B.SilkS) (width 0.12))
    (fp_line (start -2.06 1.46) (end -2.06 -6.36) (layer B.SilkS) (width 0.12))
    (fp_line (start -1.14 1.46) (end -2.06 1.46) (layer B.SilkS) (width 0.12))
    (fp_line (start -1.14 -0.14) (end -1.14 1.46) (layer B.SilkS) (width 0.12))
    (fp_line (start -0.86 -0.14) (end -1.14 -0.14) (layer B.SilkS) (width 0.12))
    (pad 11 thru_hole oval (at 20 0 270) (size 1.2 1.75) (drill 0.75) (layers *.Cu *.Mask)
      (net 1 +3V3))
    (pad 10 thru_hole oval (at 18 0 270) (size 1.2 1.75) (drill 0.75) (layers *.Cu *.Mask)
      (net 2 GND))
    (pad 9 thru_hole oval (at 16 0 270) (size 1.2 1.75) (drill 0.75) (layers *.Cu *.Mask)
      (net 7 SDA))
    (pad 8 thru_hole oval (at 14 0 270) (size 1.2 1.75) (drill 0.75) (layers *.Cu *.Mask)
      (net 8 SCL))
    (pad 7 thru_hole oval (at 12 0 270) (size 1.2 1.75) (drill 0.75) (layers *.Cu *.Mask)
      (net 3 "Net-(J1-Pad7)"))
    (pad 6 thru_hole oval (at 10 0 270) (size 1.2 1.75) (drill 0.75) (layers *.Cu *.Mask)
      (net 4 "Net-(J1-Pad6)"))
    (pad 5 thru_hole oval (at 8 0 270) (size 1.2 1.75) (drill 0.75) (layers *.Cu *.Mask)
      (net 5 "Net-(J1-Pad5)"))
    (pad 4 thru_hole oval (at 6 0 270) (size 1.2 1.75) (drill 0.75) (layers *.Cu *.Mask)
      (net 6 "Net-(J1-Pad4)"))
    (pad 3 thru_hole oval (at 4 0 270) (size 1.2 1.75) (drill 0.75) (layers *.Cu *.Mask)
      (net 9 ESwitch))
    (pad 2 thru_hole oval (at 2 0 270) (size 1.2 1.75) (drill 0.75) (layers *.Cu *.Mask)
      (net 11 E1))
    (pad 1 thru_hole roundrect (at 0 0 270) (size 1.2 1.75) (drill 0.75) (layers *.Cu *.Mask) (roundrect_rratio 0.208333)
      (net 10 E2))
    (model ${KISYS3DMOD}/Connector_JST.3dshapes/JST_PH_S11B-PH-K_1x11_P2.00mm_Horizontal.wrl
      (at (xyz 0 0 0))
      (scale (xyz 1 1 1))
      (rotate (xyz 0 0 0))
    )
  )

  (gr_line (start 100 90) (end 100 50) (layer Edge.Cuts) (width 0.1))
  (gr_line (start 200 50) (end 200 90) (layer Edge.Cuts) (width 0.1))
  (gr_line (start 100 50) (end 200 50) (layer Edge.Cuts) (width 0.1) (tstamp 5F33C543))
  (gr_line (start 200 90) (end 100 90) (layer Edge.Cuts) (width 0.1))

  (segment (start 130.4875 68) (end 130.4875 73) (width 0.8) (layer F.Cu) (net 1))
  (segment (start 130.4875 73) (end 130.4875 78) (width 0.8) (layer F.Cu) (net 1))
  (segment (start 139.162501 58.449999) (end 130.4875 67.125) (width 0.8) (layer F.Cu) (net 1))
  (segment (start 161.009999 58.449999) (end 139.162501 58.449999) (width 0.8) (layer F.Cu) (net 1))
  (segment (start 130.4875 67.125) (end 130.4875 68) (width 0.8) (layer F.Cu) (net 1))
  (segment (start 162.56 60) (end 161.009999 58.449999) (width 0.8) (layer F.Cu) (net 1))
  (segment (start 131.2 78) (end 130.4875 78) (width 0.8) (layer F.Cu) (net 1))
  (segment (start 177.337919 78) (end 131.2 78) (width 0.8) (layer F.Cu) (net 1))
  (segment (start 179.337919 80) (end 177.337919 78) (width 0.8) (layer F.Cu) (net 1))
  (segment (start 193 80) (end 179.337919 80) (width 0.8) (layer F.Cu) (net 1))
  (segment (start 120.83 70.5) (end 127.5935 70.5) (width 0.8) (layer F.Cu) (net 2))
  (segment (start 128.92501 79.01851) (end 128.92501 71.83151) (width 0.8) (layer F.Cu) (net 2))
  (segment (start 128.36851 79.57501) (end 128.92501 79.01851) (width 0.8) (layer F.Cu) (net 2))
  (segment (start 110.389008 79.57501) (end 128.36851 79.57501) (width 0.8) (layer F.Cu) (net 2))
  (segment (start 104.629999 73.816001) (end 110.389008 79.57501) (width 0.8) (layer F.Cu) (net 2))
  (segment (start 128.92501 71.83151) (end 127.5935 70.5) (width 0.8) (layer F.Cu) (net 2))
  (segment (start 104.629999 69.700001) (end 104.629999 73.816001) (width 0.8) (layer F.Cu) (net 2))
  (segment (start 106.33 68) (end 104.629999 69.700001) (width 0.8) (layer F.Cu) (net 2))
  (segment (start 193.275 78) (end 193 78) (width 0.8) (layer F.Cu) (net 2))
  (segment (start 194.675 79.4) (end 193.275 78) (width 0.8) (layer F.Cu) (net 2))
  (segment (start 194.675 80.438491) (end 194.675 79.4) (width 0.8) (layer F.Cu) (net 2))
  (segment (start 193.813481 81.30001) (end 194.675 80.438491) (width 0.8) (layer F.Cu) (net 2))
  (segment (start 177.357281 79.57501) (end 179.082281 81.30001) (width 0.8) (layer F.Cu) (net 2))
  (segment (start 179.082281 81.30001) (end 193.813481 81.30001) (width 0.8) (layer F.Cu) (net 2))
  (segment (start 128.36851 79.57501) (end 177.357281 79.57501) (width 0.8) (layer F.Cu) (net 2))
  (segment (start 128.92501 67.13147) (end 128.92501 71.83151) (width 0.8) (layer F.Cu) (net 2))
  (segment (start 164.099989 57.349989) (end 138.706491 57.349989) (width 0.8) (layer F.Cu) (net 2))
  (segment (start 165.1 58.35) (end 164.099989 57.349989) (width 0.8) (layer F.Cu) (net 2))
  (segment (start 138.706491 57.349989) (end 128.92501 67.13147) (width 0.8) (layer F.Cu) (net 2))
  (segment (start 165.1 60) (end 165.1 58.35) (width 0.8) (layer F.Cu) (net 2))
  (segment (start 173.48 76) (end 193 76) (width 0.6) (layer F.Cu) (net 7))
  (segment (start 157.48 60) (end 173.48 76) (width 0.6) (layer F.Cu) (net 7))
  (segment (start 174.02 74) (end 160.02 60) (width 0.6) (layer F.Cu) (net 8))
  (segment (start 193 74) (end 174.02 74) (width 0.6) (layer F.Cu) (net 8))
  (segment (start 106.33 73) (end 111.33 78) (width 0.6) (layer F.Cu) (net 9))
  (segment (start 119 78) (end 127.5125 78) (width 0.6) (layer F.Cu) (net 9))
  (segment (start 111.33 78) (end 119 78) (width 0.6) (layer F.Cu) (net 9))
  (segment (start 126.8 78) (end 127.5125 78) (width 0.6) (layer F.Cu) (net 9))
  (segment (start 119.91 78) (end 126.8 78) (width 0.6) (layer F.Cu) (net 9))
  (segment (start 118.11 76.2) (end 119.91 78) (width 0.6) (layer F.Cu) (net 9))
  (segment (start 118.11 66.04) (end 118.11 76.2) (width 0.6) (layer F.Cu) (net 9))
  (segment (start 193 64) (end 194.475 64) (width 0.6) (layer F.Cu) (net 9))
  (segment (start 194.47501 63.99999) (end 194.47501 59.297912) (width 0.6) (layer F.Cu) (net 9))
  (segment (start 129.600041 54.549959) (end 118.11 66.04) (width 0.6) (layer F.Cu) (net 9))
  (segment (start 194.475 64) (end 194.47501 63.99999) (width 0.6) (layer F.Cu) (net 9))
  (segment (start 194.47501 59.297912) (end 189.727057 54.549959) (width 0.6) (layer F.Cu) (net 9))
  (segment (start 189.727057 54.549959) (end 129.600041 54.549959) (width 0.6) (layer F.Cu) (net 9))
  (segment (start 120.83 73) (end 127.5125 73) (width 0.6) (layer F.Cu) (net 10))
  (segment (start 119.830001 72.000001) (end 120.83 73) (width 0.6) (layer F.Cu) (net 10))
  (segment (start 193 60) (end 188.449969 55.449969) (width 0.6) (layer F.Cu) (net 10))
  (segment (start 119.229999 66.727195) (end 119.229999 71.399999) (width 0.6) (layer F.Cu) (net 10))
  (segment (start 188.449969 55.449969) (end 130.507225 55.449969) (width 0.6) (layer F.Cu) (net 10))
  (segment (start 130.507225 55.449969) (end 119.229999 66.727195) (width 0.6) (layer F.Cu) (net 10))
  (segment (start 119.229999 71.399999) (end 119.830001 72.000001) (width 0.6) (layer F.Cu) (net 10))
  (segment (start 120.83 68) (end 127.5125 68) (width 0.6) (layer F.Cu) (net 11))
  (segment (start 130.880021 56.349979) (end 120.83 66.4) (width 0.6) (layer F.Cu) (net 11))
  (segment (start 164.514206 56.349979) (end 130.880021 56.349979) (width 0.6) (layer F.Cu) (net 11))
  (segment (start 170.164227 62) (end 164.514206 56.349979) (width 0.6) (layer F.Cu) (net 11))
  (segment (start 120.83 66.4) (end 120.83 68) (width 0.6) (layer F.Cu) (net 11))
  (segment (start 193 62) (end 170.164227 62) (width 0.6) (layer F.Cu) (net 11))

)
