EESchema Schematic File Version 4
EELAYER 30 0
EELAYER END
$Descr A4 11693 8268
encoding utf-8
Sheet 1 1
Title ""
Date ""
Rev ""
Comp ""
Comment1 ""
Comment2 ""
Comment3 ""
Comment4 ""
$EndDescr
$Comp
L Interface_USB:FT231XS U2
U 1 1 5DC22334
P 3750 6550
F 0 "U2" H 3750 6600 50  0000 C CNN
F 1 "FT231XS" H 3750 6500 50  0000 C CNN
F 2 "Package_SO:SSOP-20_3.9x8.7mm_P0.635mm" H 4350 5600 50  0001 C CNN
F 3 "http://www.ftdichip.com/Products/ICs/FT231X.html" H 3750 6550 50  0001 C CNN
F 4 "FT231XS-R" H 3750 6550 50  0001 C CNN "SKU"
	1    3750 6550
	1    0    0    -1  
$EndComp
$Comp
L Connector:USB_B_Micro J1
U 1 1 5DC23691
P 1200 6350
F 0 "J1" H 970 6247 50  0000 R CNN
F 1 "USB_B_Micro" H 970 6338 50  0000 R CNN
F 2 "Connector_USB:USB_Micro-B_GCT_USB3076-30-A" H 1350 6300 50  0001 C CNN
F 3 "~" H 1350 6300 50  0001 C CNN
F 4 "2073-USB3076-30-ACT-ND" H 1200 6350 50  0001 C CNN "SKU"
	1    1200 6350
	1    0    0    1   
$EndComp
$Comp
L power:GND #PWR06
U 1 1 5DC257BC
P 1200 5800
F 0 "#PWR06" H 1200 5550 50  0001 C CNN
F 1 "GND" H 1205 5627 50  0000 C CNN
F 2 "" H 1200 5800 50  0001 C CNN
F 3 "" H 1200 5800 50  0001 C CNN
	1    1200 5800
	1    0    0    1   
$EndComp
Wire Wire Line
	1200 5800 1200 5900
Wire Wire Line
	1100 5950 1100 5900
Wire Wire Line
	1100 5900 1200 5900
Connection ~ 1200 5900
Wire Wire Line
	1200 5900 1200 5950
Wire Wire Line
	1500 6350 1900 6350
Wire Wire Line
	2600 6350 3050 6350
$Comp
L Device:R R2
U 1 1 5DC29121
P 2450 6350
F 0 "R2" V 2243 6350 50  0000 C CNN
F 1 "27R" V 2334 6350 50  0000 C CNN
F 2 "Resistor_SMD:R_1206_3216Metric_Pad1.42x1.75mm_HandSolder" V 2380 6350 50  0001 C CNN
F 3 "~" H 2450 6350 50  0001 C CNN
F 4 "311-27.0FRCT-ND" H 2450 6350 50  0001 C CNN "SKU"
	1    2450 6350
	0    1    1    0   
$EndComp
Wire Wire Line
	2500 6550 2300 6550
Wire Wire Line
	3650 5400 3650 5650
Wire Wire Line
	4450 5950 4650 5950
Wire Wire Line
	4450 6050 4650 6050
$Comp
L power:VBUS #PWR016
U 1 1 5DC2E6E4
P 3650 5400
F 0 "#PWR016" H 3650 5250 50  0001 C CNN
F 1 "VBUS" H 3665 5573 50  0000 C CNN
F 2 "" H 3650 5400 50  0001 C CNN
F 3 "" H 3650 5400 50  0001 C CNN
	1    3650 5400
	1    0    0    -1  
$EndComp
$Comp
L power:VBUS #PWR014
U 1 1 5DC2F305
P 2500 6550
F 0 "#PWR014" H 2500 6400 50  0001 C CNN
F 1 "VBUS" V 2515 6678 50  0000 L CNN
F 2 "" H 2500 6550 50  0001 C CNN
F 3 "" H 2500 6550 50  0001 C CNN
	1    2500 6550
	0    1    1    0   
$EndComp
$Comp
L power:GND #PWR018
U 1 1 5DC303A3
P 3850 7500
F 0 "#PWR018" H 3850 7250 50  0001 C CNN
F 1 "GND" H 3855 7327 50  0000 C CNN
F 2 "" H 3850 7500 50  0001 C CNN
F 3 "" H 3850 7500 50  0001 C CNN
	1    3850 7500
	-1   0    0    -1  
$EndComp
$Comp
L power:GND #PWR017
U 1 1 5DC30C9E
P 3650 7500
F 0 "#PWR017" H 3650 7250 50  0001 C CNN
F 1 "GND" H 3655 7327 50  0000 C CNN
F 2 "" H 3650 7500 50  0001 C CNN
F 3 "" H 3650 7500 50  0001 C CNN
	1    3650 7500
	-1   0    0    -1  
$EndComp
Wire Wire Line
	3650 7450 3650 7500
Wire Wire Line
	3850 7500 3850 7450
Text GLabel 4650 6050 2    50   Input ~ 0
U0TXD
Text GLabel 4650 5950 2    50   Input ~ 0
U0RXD
Wire Wire Line
	1550 6550 1550 5500
Connection ~ 1550 6550
Wire Wire Line
	1550 6550 1500 6550
Wire Wire Line
	1900 6350 1900 5500
Connection ~ 1900 6350
Wire Wire Line
	1900 6350 2300 6350
Wire Wire Line
	3850 5600 2900 5600
Wire Wire Line
	2900 5600 2900 5950
Wire Wire Line
	2900 5950 3050 5950
Wire Wire Line
	3850 5650 3850 5600
Wire Wire Line
	2900 5600 2900 5500
Connection ~ 2900 5600
Wire Wire Line
	2900 6550 3050 6550
Connection ~ 2900 5950
Connection ~ 2250 6250
Wire Wire Line
	2250 6250 2250 5500
Wire Wire Line
	1500 6250 2250 6250
$Comp
L Device:C C4
U 1 1 5DC36C5C
P 1550 5350
F 0 "C4" H 1665 5396 50  0000 L CNN
F 1 "0.1uF" H 1665 5305 50  0000 L CNN
F 2 "Capacitor_SMD:C_1206_3216Metric_Pad1.42x1.75mm_HandSolder" H 1588 5200 50  0001 C CNN
F 3 "~" H 1550 5350 50  0001 C CNN
F 4 "399-4674-1-ND" H 1550 5350 50  0001 C CNN "SKU"
	1    1550 5350
	1    0    0    -1  
$EndComp
Wire Wire Line
	2900 5950 2900 6550
Wire Wire Line
	2250 6250 2550 6250
Wire Wire Line
	2850 6250 3050 6250
$Comp
L Device:R R3
U 1 1 5DC28033
P 2700 6250
F 0 "R3" V 2493 6250 50  0000 C CNN
F 1 "27R" V 2584 6250 50  0000 C CNN
F 2 "Resistor_SMD:R_1206_3216Metric_Pad1.42x1.75mm_HandSolder" V 2630 6250 50  0001 C CNN
F 3 "~" H 2700 6250 50  0001 C CNN
F 4 "311-27.0FRCT-ND" H 2700 6250 50  0001 C CNN "SKU"
	1    2700 6250
	0    1    1    0   
$EndComp
$Comp
L Device:C C5
U 1 1 5DC3A7A9
P 1900 5350
F 0 "C5" H 2015 5396 50  0000 L CNN
F 1 "47pF" H 2015 5305 50  0000 L CNN
F 2 "Capacitor_SMD:C_1206_3216Metric_Pad1.42x1.75mm_HandSolder" H 1938 5200 50  0001 C CNN
F 3 "~" H 1900 5350 50  0001 C CNN
F 4 "311-1158-1-ND" H 1900 5350 50  0001 C CNN "SKU"
	1    1900 5350
	1    0    0    -1  
$EndComp
$Comp
L Device:C C7
U 1 1 5DC3ACA0
P 2250 5350
F 0 "C7" H 2365 5396 50  0000 L CNN
F 1 "47pF" H 2365 5305 50  0000 L CNN
F 2 "Capacitor_SMD:C_1206_3216Metric_Pad1.42x1.75mm_HandSolder" H 2288 5200 50  0001 C CNN
F 3 "~" H 2250 5350 50  0001 C CNN
F 4 "311-1158-1-ND" H 2250 5350 50  0001 C CNN "SKU"
	1    2250 5350
	1    0    0    -1  
$EndComp
$Comp
L power:GND #PWR07
U 1 1 5DC3AF2A
P 1550 5150
F 0 "#PWR07" H 1550 4900 50  0001 C CNN
F 1 "GND" H 1555 4977 50  0000 C CNN
F 2 "" H 1550 5150 50  0001 C CNN
F 3 "" H 1550 5150 50  0001 C CNN
	1    1550 5150
	1    0    0    1   
$EndComp
$Comp
L power:GND #PWR08
U 1 1 5DC3B34E
P 1900 5150
F 0 "#PWR08" H 1900 4900 50  0001 C CNN
F 1 "GND" H 1905 4977 50  0000 C CNN
F 2 "" H 1900 5150 50  0001 C CNN
F 3 "" H 1900 5150 50  0001 C CNN
	1    1900 5150
	1    0    0    1   
$EndComp
$Comp
L power:GND #PWR010
U 1 1 5DC3B6D9
P 2250 5150
F 0 "#PWR010" H 2250 4900 50  0001 C CNN
F 1 "GND" H 2255 4977 50  0000 C CNN
F 2 "" H 2250 5150 50  0001 C CNN
F 3 "" H 2250 5150 50  0001 C CNN
	1    2250 5150
	1    0    0    1   
$EndComp
$Comp
L Device:C C9
U 1 1 5DC3B9CB
P 2900 5350
F 0 "C9" H 3015 5396 50  0000 L CNN
F 1 "0.1uF" H 3015 5305 50  0000 L CNN
F 2 "Capacitor_SMD:C_1206_3216Metric_Pad1.42x1.75mm_HandSolder" H 2938 5200 50  0001 C CNN
F 3 "~" H 2900 5350 50  0001 C CNN
F 4 "399-4674-1-ND" H 2900 5350 50  0001 C CNN "SKU"
	1    2900 5350
	1    0    0    -1  
$EndComp
Wire Wire Line
	1900 5150 1900 5200
Wire Wire Line
	1550 5150 1550 5200
Wire Wire Line
	2250 5150 2250 5200
Wire Wire Line
	2900 5150 2900 5200
$Comp
L power:GND #PWR015
U 1 1 5DC3BF7A
P 2900 5150
F 0 "#PWR015" H 2900 4900 50  0001 C CNN
F 1 "GND" H 2905 4977 50  0000 C CNN
F 2 "" H 2900 5150 50  0001 C CNN
F 3 "" H 2900 5150 50  0001 C CNN
	1    2900 5150
	1    0    0    1   
$EndComp
Wire Wire Line
	1650 6550 1550 6550
$Comp
L Device:Ferrite_Bead_Small FB1
U 1 1 5DC6517B
P 1750 6550
F 0 "FB1" V 1605 6550 50  0000 C CNN
F 1 "Ferrite_Bead_Small" V 1604 6550 50  0001 C CNN
F 2 "Inductor_SMD:L_1206_3216Metric_Pad1.42x1.75mm_HandSolder" V 1680 6550 50  0001 C CNN
F 3 "~" H 1750 6550 50  0001 C CNN
F 4 "490-1056-1-ND" H 1750 6550 50  0001 C CNN "SKU"
	1    1750 6550
	0    1    1    0   
$EndComp
$Comp
L Device:C C6
U 1 1 5DC6AA29
P 1950 6800
F 0 "C6" H 2065 6846 50  0000 L CNN
F 1 "0.1uF" H 2065 6755 50  0000 L CNN
F 2 "Capacitor_SMD:C_1206_3216Metric_Pad1.42x1.75mm_HandSolder" H 1988 6650 50  0001 C CNN
F 3 "~" H 1950 6800 50  0001 C CNN
F 4 "399-4674-1-ND" H 1950 6800 50  0001 C CNN "SKU"
	1    1950 6800
	1    0    0    -1  
$EndComp
$Comp
L Device:C C8
U 1 1 5DC6B0BE
P 2300 6800
F 0 "C8" H 2415 6846 50  0000 L CNN
F 1 "4.7uF" H 2415 6755 50  0000 L CNN
F 2 "Capacitor_SMD:C_1206_3216Metric_Pad1.42x1.75mm_HandSolder" H 2338 6650 50  0001 C CNN
F 3 "~" H 2300 6800 50  0001 C CNN
F 4 "399-1262-1-ND" H 2300 6800 50  0001 C CNN "SKU"
	1    2300 6800
	1    0    0    -1  
$EndComp
Wire Wire Line
	1950 6650 1950 6550
Connection ~ 1950 6550
Wire Wire Line
	1950 6550 1850 6550
Wire Wire Line
	2300 6650 2300 6550
Connection ~ 2300 6550
Wire Wire Line
	2300 6550 1950 6550
Wire Wire Line
	2300 6950 2300 7100
Wire Wire Line
	1950 6950 1950 7100
$Comp
L power:GND #PWR09
U 1 1 5DC6EFDD
P 1950 7100
F 0 "#PWR09" H 1950 6850 50  0001 C CNN
F 1 "GND" H 1955 6927 50  0000 C CNN
F 2 "" H 1950 7100 50  0001 C CNN
F 3 "" H 1950 7100 50  0001 C CNN
	1    1950 7100
	-1   0    0    -1  
$EndComp
$Comp
L power:GND #PWR011
U 1 1 5DC6F4E1
P 2300 7100
F 0 "#PWR011" H 2300 6850 50  0001 C CNN
F 1 "GND" H 2305 6927 50  0000 C CNN
F 2 "" H 2300 7100 50  0001 C CNN
F 3 "" H 2300 7100 50  0001 C CNN
	1    2300 7100
	-1   0    0    -1  
$EndComp
Text GLabel 6600 6350 0    50   Input ~ 0
RTS
Text GLabel 6600 6200 0    50   Input ~ 0
DTR
Text GLabel 6600 6050 0    50   Input ~ 0
IO0
Text GLabel 7300 6350 2    50   Input ~ 0
EN
Text GLabel 7300 6200 2    50   Input ~ 0
RTS
Text GLabel 7300 6050 2    50   Input ~ 0
DTR
Text GLabel 4650 6150 2    50   Input ~ 0
RTS
Wire Wire Line
	4650 6150 4450 6150
Wire Wire Line
	4450 6350 4650 6350
Text GLabel 4650 6350 2    50   Input ~ 0
DTR
Wire Wire Line
	7300 6050 7200 6050
Wire Wire Line
	7200 6200 7300 6200
Wire Wire Line
	7300 6350 7200 6350
Wire Wire Line
	6700 6350 6600 6350
Wire Wire Line
	6700 6200 6600 6200
Wire Wire Line
	6600 6050 6700 6050
$Comp
L Device:LED D2
U 1 1 5DCB2EBD
P 5100 6400
F 0 "D2" V 5139 6283 50  0000 R CNN
F 1 "LED_RED" V 5048 6283 50  0000 R CNN
F 2 "LED_SMD:LED_1206_3216Metric_Pad1.42x1.75mm_HandSolder" H 5100 6400 50  0001 C CNN
F 3 "~" H 5100 6400 50  0001 C CNN
F 4 "160-1167-1-ND" H 5100 6400 50  0001 C CNN "SKU"
	1    5100 6400
	0    -1   -1   0   
$EndComp
$Comp
L Device:LED D3
U 1 1 5DCB3A8F
P 5450 6400
F 0 "D3" V 5489 6283 50  0000 R CNN
F 1 "LED_YELLOW" V 5398 6283 50  0000 R CNN
F 2 "LED_SMD:LED_1206_3216Metric_Pad1.42x1.75mm_HandSolder" H 5450 6400 50  0001 C CNN
F 3 "~" H 5450 6400 50  0001 C CNN
F 4 "160-1403-1-ND" H 5450 6400 50  0001 C CNN "SKU"
	1    5450 6400
	0    -1   -1   0   
$EndComp
Wire Wire Line
	5100 6550 5100 6600
Wire Wire Line
	5450 6550 5450 6600
$Comp
L Device:R R6
U 1 1 5DCB66ED
P 5100 6750
F 0 "R6" H 5030 6704 50  0000 R CNN
F 1 "62R" H 5030 6795 50  0000 R CNN
F 2 "Resistor_SMD:R_1206_3216Metric_Pad1.42x1.75mm_HandSolder" V 5030 6750 50  0001 C CNN
F 3 "~" H 5100 6750 50  0001 C CNN
F 4 "311-62.0FRCT-ND" H 5100 6750 50  0001 C CNN "SKU"
	1    5100 6750
	-1   0    0    1   
$EndComp
$Comp
L Device:R R7
U 1 1 5DCB6D9A
P 5450 6750
F 0 "R7" H 5380 6704 50  0000 R CNN
F 1 "62R" H 5380 6795 50  0000 R CNN
F 2 "Resistor_SMD:R_1206_3216Metric_Pad1.42x1.75mm_HandSolder" V 5380 6750 50  0001 C CNN
F 3 "~" H 5450 6750 50  0001 C CNN
F 4 "311-62.0FRCT-ND" H 5450 6750 50  0001 C CNN "SKU"
	1    5450 6750
	-1   0    0    1   
$EndComp
Wire Wire Line
	4450 7050 5100 7050
Wire Wire Line
	5100 7050 5100 6900
Wire Wire Line
	5450 6900 5450 7150
Wire Wire Line
	5450 7150 4450 7150
Wire Wire Line
	10250 2400 10400 2400
Wire Wire Line
	10400 2300 10250 2300
Text GLabel 8750 1950 0    50   Input ~ 0
IO26
Text GLabel 8750 1850 0    50   Input ~ 0
IO25
Wire Wire Line
	8750 2150 8900 2150
Wire Wire Line
	8900 2050 8750 2050
Wire Wire Line
	8750 1950 8900 1950
Wire Wire Line
	8900 1850 8750 1850
Text GLabel 8750 850  0    50   Input ~ 0
IO35
Text GLabel 8750 750  0    50   Input ~ 0
IO34
Wire Wire Line
	8750 1050 8900 1050
Wire Wire Line
	8900 950  8750 950 
Wire Wire Line
	8750 850  8900 850 
Wire Wire Line
	8900 750  8750 750 
Text GLabel 8750 1400 0    50   Input ~ 0
IO17
Text GLabel 8750 1300 0    50   Input ~ 0
IO16
Wire Wire Line
	8750 1600 8900 1600
Wire Wire Line
	8900 1500 8750 1500
Wire Wire Line
	8750 1400 8900 1400
Wire Wire Line
	8900 1300 8750 1300
Wire Wire Line
	4700 3850 4750 3850
$Comp
L Device:R R5
U 1 1 5DCEBB69
P 4900 3850
F 0 "R5" H 4830 3804 50  0000 R CNN
F 1 "62R" H 4830 3895 50  0000 R CNN
F 2 "Resistor_SMD:R_1206_3216Metric_Pad1.42x1.75mm_HandSolder" V 4830 3850 50  0001 C CNN
F 3 "~" H 4900 3850 50  0001 C CNN
F 4 "311-62.0FRCT-ND" H 4900 3850 50  0001 C CNN "SKU"
	1    4900 3850
	0    1    1    0   
$EndComp
Wire Wire Line
	5050 3850 5150 3850
Wire Wire Line
	4300 3850 4400 3850
$Comp
L power:GND #PWR020
U 1 1 5DCF5143
P 5150 3850
F 0 "#PWR020" H 5150 3600 50  0001 C CNN
F 1 "GND" H 5155 3677 50  0000 C CNN
F 2 "" H 5150 3850 50  0001 C CNN
F 3 "" H 5150 3850 50  0001 C CNN
	1    5150 3850
	0    -1   -1   0   
$EndComp
Text GLabel 4300 3850 0    50   Input ~ 0
IO5
$Comp
L Connector:Screw_Terminal_01x02 J8
U 1 1 5DCD4A58
P 10500 3950
F 0 "J8" H 10728 3996 50  0000 L CNN
F 1 "conn_fet" H 10728 3905 50  0000 L CNN
F 2 "TerminalBlock_Phoenix:TerminalBlock_Phoenix_MKDS-1,5-2_1x02_P5.00mm_Horizontal" H 10500 3950 50  0001 C CNN
F 3 "~" H 10500 3950 50  0001 C CNN
F 4 "609-3819-ND" H 10500 3950 50  0001 C CNN "SKU"
	1    10500 3950
	1    0    0    -1  
$EndComp
$Comp
L RF_Module:ESP32-WROOM-32D U1
U 1 1 5DC1FC60
P 2400 2550
F 0 "U1" H 2400 3250 50  0000 C CNN
F 1 "ESP32-WROOM-32D" H 2300 3150 50  0000 C CNN
F 2 "RF_Module:ESP32-WROOM-32" H 2400 1050 50  0001 C CNN
F 3 "https://www.espressif.com/sites/default/files/documentation/esp32-wroom-32d_esp32-wroom-32u_datasheet_en.pdf" H 2100 2600 50  0001 C CNN
F 4 "ESP32-WROOM-32D" H 2400 2550 50  0001 C CNN "SKU"
	1    2400 2550
	1    0    0    -1  
$EndComp
Text GLabel 3000 1650 2    50   Input ~ 0
U0RXD
Text GLabel 3000 1450 2    50   Input ~ 0
U0TXD
$Comp
L power:GND #PWR013
U 1 1 5DC7360A
P 2400 4050
F 0 "#PWR013" H 2400 3800 50  0001 C CNN
F 1 "GND" H 2405 3877 50  0000 C CNN
F 2 "" H 2400 4050 50  0001 C CNN
F 3 "" H 2400 4050 50  0001 C CNN
	1    2400 4050
	-1   0    0    -1  
$EndComp
Wire Wire Line
	2400 4050 2400 3950
$Comp
L power:+3.3V #PWR04
U 1 1 5DC76F90
P 1200 900
F 0 "#PWR04" H 1200 750 50  0001 C CNN
F 1 "+3.3V" H 1215 1073 50  0000 C CNN
F 2 "" H 1200 900 50  0001 C CNN
F 3 "" H 1200 900 50  0001 C CNN
	1    1200 900 
	1    0    0    -1  
$EndComp
$Comp
L Device:R R1
U 1 1 5DC77570
P 1200 1100
F 0 "R1" H 1270 1146 50  0000 L CNN
F 1 "10k" H 1270 1055 50  0000 L CNN
F 2 "Resistor_SMD:R_1206_3216Metric_Pad1.42x1.75mm_HandSolder" V 1130 1100 50  0001 C CNN
F 3 "~" H 1200 1100 50  0001 C CNN
F 4 "311-10.0KFRCT-ND" H 1200 1100 50  0001 C CNN "SKU"
	1    1200 1100
	1    0    0    -1  
$EndComp
Wire Wire Line
	1200 900  1200 950 
Wire Wire Line
	1200 1350 1800 1350
Wire Wire Line
	1200 1250 1200 1350
Wire Wire Line
	1200 1450 1200 1350
Connection ~ 1200 1350
$Comp
L power:GND #PWR05
U 1 1 5DC7B1DC
P 1200 1950
F 0 "#PWR05" H 1200 1700 50  0001 C CNN
F 1 "GND" H 1205 1777 50  0000 C CNN
F 2 "" H 1200 1950 50  0001 C CNN
F 3 "" H 1200 1950 50  0001 C CNN
	1    1200 1950
	-1   0    0    -1  
$EndComp
Wire Wire Line
	1200 1950 1200 1850
Wire Wire Line
	1200 1350 800  1350
Wire Wire Line
	800  1350 800  1450
$Comp
L Device:C C1
U 1 1 5DC7D696
P 800 1600
F 0 "C1" H 915 1646 50  0000 L CNN
F 1 "0.1uF" H 915 1555 50  0000 L CNN
F 2 "Capacitor_SMD:C_1206_3216Metric_Pad1.42x1.75mm_HandSolder" H 838 1450 50  0001 C CNN
F 3 "~" H 800 1600 50  0001 C CNN
F 4 "399-4674-1-ND" H 800 1600 50  0001 C CNN "SKU"
	1    800  1600
	1    0    0    -1  
$EndComp
$Comp
L power:GND #PWR01
U 1 1 5DC7F72B
P 800 1950
F 0 "#PWR01" H 800 1700 50  0001 C CNN
F 1 "GND" H 805 1777 50  0000 C CNN
F 2 "" H 800 1950 50  0001 C CNN
F 3 "" H 800 1950 50  0001 C CNN
	1    800  1950
	-1   0    0    -1  
$EndComp
Wire Wire Line
	800  1950 800  1750
Text GLabel 3000 1750 2    50   Input ~ 0
TOUCH0
Text GLabel 3000 1950 2    50   Input ~ 0
TOUCH5
Text GLabel 3000 2050 2    50   Input ~ 0
TOUCH4
Text GLabel 3000 2150 2    50   Input ~ 0
TOUCH6
Text GLabel 3000 2250 2    50   Input ~ 0
TOUCH3
Text GLabel 3000 2350 2    50   Input ~ 0
IO16
Text GLabel 3000 2450 2    50   Input ~ 0
IO17
Text GLabel 3000 2550 2    50   Input ~ 0
IO18
Text GLabel 3000 2650 2    50   Input ~ 0
IO19
Text GLabel 3000 2750 2    50   Input ~ 0
IO21
Text GLabel 3000 2950 2    50   Input ~ 0
IO23
Text GLabel 3000 3050 2    50   Input ~ 0
IO25
Text GLabel 3000 3150 2    50   Input ~ 0
IO26
Text GLabel 3000 3250 2    50   Input ~ 0
TOUCH7
Text GLabel 3000 3350 2    50   Input ~ 0
TOUCH9
Text GLabel 3000 3450 2    50   Input ~ 0
TOUCH8
Text GLabel 3000 3550 2    50   Input ~ 0
IO34
Text GLabel 3000 3650 2    50   Input ~ 0
IO35
Text GLabel 3000 1550 2    50   Input ~ 0
TOUCH2
Text GLabel 3000 1350 2    50   Input ~ 0
IO0
Text GLabel 3000 1850 2    50   Input ~ 0
IO5
$Comp
L power:+3.3V #PWR012
U 1 1 5DC7462C
P 2400 900
F 0 "#PWR012" H 2400 750 50  0001 C CNN
F 1 "+3.3V" H 2415 1073 50  0000 C CNN
F 2 "" H 2400 900 50  0001 C CNN
F 3 "" H 2400 900 50  0001 C CNN
	1    2400 900 
	1    0    0    -1  
$EndComp
Wire Wire Line
	2400 900  2400 1150
$Comp
L Device:LED D1
U 1 1 5DCEBB5E
P 4550 3850
F 0 "D1" V 4600 3750 50  0000 R CNN
F 1 "LED_GREEN" V 4500 3750 50  0000 R CNN
F 2 "LED_SMD:LED_1206_3216Metric_Pad1.42x1.75mm_HandSolder" H 4550 3850 50  0001 C CNN
F 3 "~" H 4550 3850 50  0001 C CNN
F 4 "160-1169-1-ND" H 4550 3850 50  0001 C CNN "SKU"
	1    4550 3850
	-1   0    0    1   
$EndComp
$Comp
L motherboard-rescue:NMOSFETTO252-fab T1
U 1 1 5DD1204F
P 9850 3750
F 0 "T1" H 9958 3792 45  0000 L CNN
F 1 "NMOSFETTO252" H 9958 3708 45  0000 L CNN
F 2 "fab:fab-TO252" H 9880 3900 20  0001 C CNN
F 3 "" H 9850 3750 50  0001 C CNN
F 4 "RFD16N05LSM9ACT-ND" H 9850 3750 50  0001 C CNN "SKU"
	1    9850 3750
	1    0    0    1   
$EndComp
$Comp
L power:GND #PWR026
U 1 1 5DD1D141
P 9850 3350
F 0 "#PWR026" H 9850 3100 50  0001 C CNN
F 1 "GND" H 9855 3177 50  0000 C CNN
F 2 "" H 9850 3350 50  0001 C CNN
F 3 "" H 9850 3350 50  0001 C CNN
	1    9850 3350
	1    0    0    1   
$EndComp
Wire Wire Line
	9650 3650 9500 3650
$Comp
L Device:R R8
U 1 1 5DD39C95
P 9350 3650
F 0 "R8" H 9280 3604 50  0000 R CNN
F 1 "1k" H 9280 3695 50  0000 R CNN
F 2 "Resistor_SMD:R_1206_3216Metric_Pad1.42x1.75mm_HandSolder" V 9280 3650 50  0001 C CNN
F 3 "~" H 9350 3650 50  0001 C CNN
F 4 "311-1.00KFRCT-ND" H 9350 3650 50  0001 C CNN "SKU"
	1    9350 3650
	0    -1   1    0   
$EndComp
Wire Wire Line
	9200 3650 9050 3650
Text GLabel 9050 3650 0    50   Input ~ 0
IO18
$Comp
L Connector:Screw_Terminal_01x02 J9
U 1 1 5DD5E3FD
P 10500 5050
F 0 "J9" H 10728 5096 50  0000 L CNN
F 1 "conn_fet" H 10728 5005 50  0000 L CNN
F 2 "TerminalBlock_Phoenix:TerminalBlock_Phoenix_MKDS-1,5-2_1x02_P5.00mm_Horizontal" H 10500 5050 50  0001 C CNN
F 3 "~" H 10500 5050 50  0001 C CNN
F 4 "609-3819-ND" H 10500 5050 50  0001 C CNN "SKU"
	1    10500 5050
	1    0    0    -1  
$EndComp
$Comp
L motherboard-rescue:NMOSFETTO252-fab T2
U 1 1 5DD5E408
P 9850 4850
F 0 "T2" H 9958 4892 45  0000 L CNN
F 1 "NMOSFETTO252" H 9958 4808 45  0000 L CNN
F 2 "fab:fab-TO252" H 9880 5000 20  0001 C CNN
F 3 "" H 9850 4850 50  0001 C CNN
F 4 "RFD16N05LSM9ACT-ND" H 9850 4850 50  0001 C CNN "SKU"
	1    9850 4850
	1    0    0    1   
$EndComp
$Comp
L power:GND #PWR028
U 1 1 5DD5E412
P 9850 4450
F 0 "#PWR028" H 9850 4200 50  0001 C CNN
F 1 "GND" H 9855 4277 50  0000 C CNN
F 2 "" H 9850 4450 50  0001 C CNN
F 3 "" H 9850 4450 50  0001 C CNN
	1    9850 4450
	1    0    0    1   
$EndComp
Wire Wire Line
	9650 4750 9500 4750
$Comp
L Device:R R9
U 1 1 5DD5E423
P 9350 4750
F 0 "R9" H 9280 4704 50  0000 R CNN
F 1 "1k" H 9280 4795 50  0000 R CNN
F 2 "Resistor_SMD:R_1206_3216Metric_Pad1.42x1.75mm_HandSolder" V 9280 4750 50  0001 C CNN
F 3 "~" H 9350 4750 50  0001 C CNN
F 4 "311-1.00KFRCT-ND" H 9350 4750 50  0001 C CNN "SKU"
	1    9350 4750
	0    -1   1    0   
$EndComp
Wire Wire Line
	9200 4750 9050 4750
Text GLabel 9050 4750 0    50   Input ~ 0
IO19
$Comp
L Connector:Screw_Terminal_01x02 J10
U 1 1 5DD64753
P 10500 6050
F 0 "J10" H 10728 6096 50  0000 L CNN
F 1 "conn_fet" H 10728 6005 50  0000 L CNN
F 2 "TerminalBlock_Phoenix:TerminalBlock_Phoenix_MKDS-1,5-2_1x02_P5.00mm_Horizontal" H 10500 6050 50  0001 C CNN
F 3 "~" H 10500 6050 50  0001 C CNN
F 4 "609-3819-ND" H 10500 6050 50  0001 C CNN "SKU"
	1    10500 6050
	1    0    0    -1  
$EndComp
$Comp
L motherboard-rescue:NMOSFETTO252-fab T3
U 1 1 5DD6475E
P 9850 5850
F 0 "T3" H 9958 5892 45  0000 L CNN
F 1 "NMOSFETTO252" H 9958 5808 45  0000 L CNN
F 2 "fab:fab-TO252" H 9880 6000 20  0001 C CNN
F 3 "" H 9850 5850 50  0001 C CNN
F 4 "RFD16N05LSM9ACT-ND" H 9850 5850 50  0001 C CNN "SKU"
	1    9850 5850
	1    0    0    1   
$EndComp
$Comp
L power:GND #PWR030
U 1 1 5DD64768
P 9850 5450
F 0 "#PWR030" H 9850 5200 50  0001 C CNN
F 1 "GND" H 9855 5277 50  0000 C CNN
F 2 "" H 9850 5450 50  0001 C CNN
F 3 "" H 9850 5450 50  0001 C CNN
	1    9850 5450
	1    0    0    1   
$EndComp
Wire Wire Line
	9650 5750 9500 5750
$Comp
L Device:R R10
U 1 1 5DD64779
P 9350 5750
F 0 "R10" H 9280 5704 50  0000 R CNN
F 1 "1k" H 9280 5795 50  0000 R CNN
F 2 "Resistor_SMD:R_1206_3216Metric_Pad1.42x1.75mm_HandSolder" V 9280 5750 50  0001 C CNN
F 3 "~" H 9350 5750 50  0001 C CNN
F 4 "311-1.00KFRCT-ND" H 9350 5750 50  0001 C CNN "SKU"
	1    9350 5750
	0    -1   1    0   
$EndComp
Wire Wire Line
	9200 5750 9050 5750
Text GLabel 9050 5750 0    50   Input ~ 0
IO23
Text GLabel 10250 1050 0    50   Input ~ 0
CS
Text GLabel 10250 950  0    50   Input ~ 0
SDI
Text GLabel 10250 850  0    50   Input ~ 0
SDO
Text GLabel 10250 750  0    50   Input ~ 0
SCK
Text GLabel 3000 2850 2    50   Input ~ 0
IO22
Text GLabel 10000 1050 0    50   Input ~ 0
IO26
Text GLabel 10000 950  0    50   Input ~ 0
IO25
Text GLabel 10000 850  0    50   Input ~ 0
IO17
Text GLabel 10000 750  0    50   Input ~ 0
IO16
Wire Wire Line
	10250 2100 10400 2100
Wire Wire Line
	10250 2200 10400 2200
Wire Wire Line
	10000 750  10400 750 
Wire Wire Line
	10000 850  10400 850 
Wire Wire Line
	10000 950  10400 950 
Wire Wire Line
	10000 1050 10400 1050
Wire Wire Line
	10250 1150 10400 1150
Wire Wire Line
	10400 1250 10250 1250
$Comp
L Connector_Generic:Conn_01x11 J3
U 1 1 5DDCB2C6
P 7000 1400
F 0 "J3" H 7080 1442 50  0000 L CNN
F 1 "cap" H 7080 1351 50  0000 L CNN
F 2 "Connector_JST:JST_PH_S11B-PH-K_1x11_P2.00mm_Horizontal" H 7000 1400 50  0001 C CNN
F 3 "~" H 7000 1400 50  0001 C CNN
F 4 "455-1726-ND" H 7000 1400 50  0001 C CNN "SKU"
	1    7000 1400
	1    0    0    -1  
$EndComp
$Comp
L Connector_Generic:Conn_01x06 J11
U 1 1 5DD742E0
P 10600 950
F 0 "J11" H 10680 942 50  0000 L CNN
F 1 "spi" H 10680 851 50  0000 L CNN
F 2 "Connector_JST:JST_PH_S6B-PH-K_1x06_P2.00mm_Horizontal" H 10600 950 50  0001 C CNN
F 3 "~" H 10600 950 50  0001 C CNN
F 4 "455-1723-ND" H 10600 950 50  0001 C CNN "SKU"
	1    10600 950 
	1    0    0    -1  
$EndComp
Text GLabel 6800 900  0    50   Input ~ 0
TOUCH0
Text GLabel 6800 1000 0    50   Input ~ 0
TOUCH2
Text GLabel 6800 1100 0    50   Input ~ 0
TOUCH3
Text GLabel 6800 1200 0    50   Input ~ 0
TOUCH4
Text GLabel 6800 1300 0    50   Input ~ 0
TOUCH5
Text GLabel 6800 1400 0    50   Input ~ 0
TOUCH6
Text GLabel 6800 1500 0    50   Input ~ 0
TOUCH7
Text GLabel 6800 1600 0    50   Input ~ 0
TOUCH8
Text GLabel 6800 1700 0    50   Input ~ 0
TOUCH9
$Comp
L Connector_Generic:Conn_01x04 J5
U 1 1 5DE0F6CB
P 9100 850
F 0 "J5" H 9180 842 50  0000 L CNN
F 1 "gpio3" H 9180 751 50  0000 L CNN
F 2 "Connector_JST:JST_PH_S4B-PH-K_1x04_P2.00mm_Horizontal" H 9100 850 50  0001 C CNN
F 3 "~" H 9100 850 50  0001 C CNN
F 4 "455-1721-ND" H 9100 850 50  0001 C CNN "SKU"
	1    9100 850 
	1    0    0    -1  
$EndComp
$Comp
L Connector_Generic:Conn_01x04 J6
U 1 1 5DE1218E
P 9100 1950
F 0 "J6" H 9180 1942 50  0000 L CNN
F 1 "gpio2" H 9180 1851 50  0000 L CNN
F 2 "Connector_JST:JST_PH_S4B-PH-K_1x04_P2.00mm_Horizontal" H 9100 1950 50  0001 C CNN
F 3 "~" H 9100 1950 50  0001 C CNN
F 4 "455-1721-ND" H 9100 1950 50  0001 C CNN "SKU"
	1    9100 1950
	1    0    0    -1  
$EndComp
$Comp
L Connector_Generic:Conn_01x04 J7
U 1 1 5DE12B0C
P 10600 2200
F 0 "J7" H 10680 2192 50  0000 L CNN
F 1 "i2c" H 10680 2101 50  0000 L CNN
F 2 "Connector_JST:JST_PH_S4B-PH-K_1x04_P2.00mm_Horizontal" H 10600 2200 50  0001 C CNN
F 3 "~" H 10600 2200 50  0001 C CNN
F 4 "455-1721-ND" H 10600 2200 50  0001 C CNN "SKU"
	1    10600 2200
	1    0    0    -1  
$EndComp
$Comp
L Connector_Generic:Conn_01x04 J12
U 1 1 5DE1341F
P 9100 1400
F 0 "J12" H 9180 1392 50  0000 L CNN
F 1 "gpio1" H 9180 1301 50  0000 L CNN
F 2 "Connector_JST:JST_PH_S4B-PH-K_1x04_P2.00mm_Horizontal" H 9100 1400 50  0001 C CNN
F 3 "~" H 9100 1400 50  0001 C CNN
F 4 "455-1721-ND" H 9100 1400 50  0001 C CNN "SKU"
	1    9100 1400
	1    0    0    -1  
$EndComp
$Comp
L GIY-library:IMH3A U3
U 1 1 5DC81DB0
P 6950 6200
F 0 "U3" H 6950 6575 50  0000 C CNN
F 1 "IMH3A" H 6950 6484 50  0000 C CNN
F 2 "GIY_footprints:IMH3A" V 6950 6200 50  0001 C CNN
F 3 "" V 6950 6200 50  0001 C CNN
F 4 "IMH3AT110CT-ND" H 6950 6200 50  0001 C CNN "SKU"
	1    6950 6200
	1    0    0    -1  
$EndComp
$Comp
L power:+3.3V #PWR019
U 1 1 5DE4A8F3
P 4700 3000
F 0 "#PWR019" H 4700 2850 50  0001 C CNN
F 1 "+3.3V" H 4715 3173 50  0000 C CNN
F 2 "" H 4700 3000 50  0001 C CNN
F 3 "" H 4700 3000 50  0001 C CNN
	1    4700 3000
	1    0    0    -1  
$EndComp
$Comp
L Device:R R4
U 1 1 5DE4A8FD
P 4700 3200
F 0 "R4" H 4770 3246 50  0000 L CNN
F 1 "10k" H 4770 3155 50  0000 L CNN
F 2 "Resistor_SMD:R_1206_3216Metric_Pad1.42x1.75mm_HandSolder" V 4630 3200 50  0001 C CNN
F 3 "~" H 4700 3200 50  0001 C CNN
F 4 "311-10.0KFRCT-ND" H 4700 3200 50  0001 C CNN "SKU"
	1    4700 3200
	1    0    0    -1  
$EndComp
Wire Wire Line
	4700 3000 4700 3050
Wire Wire Line
	4700 3350 4700 3450
Wire Wire Line
	4900 3450 4700 3450
Connection ~ 4700 3450
$Comp
L power:GND #PWR021
U 1 1 5DE4A90C
P 5400 3450
F 0 "#PWR021" H 5400 3200 50  0001 C CNN
F 1 "GND" H 5405 3277 50  0000 C CNN
F 2 "" H 5400 3450 50  0001 C CNN
F 3 "" H 5400 3450 50  0001 C CNN
	1    5400 3450
	0    -1   1    0   
$EndComp
Wire Wire Line
	5400 3450 5300 3450
Wire Wire Line
	4700 3450 4300 3450
Text GLabel 4300 3450 0    50   Input ~ 0
IO0
Wire Notes Line
	8050 3000 11200 3000
Wire Notes Line
	3900 500  3900 4450
Wire Notes Line
	5700 5700 8050 5700
Wire Notes Line
	8050 500  8050 6500
Wire Notes Line
	5700 2750 3900 2750
Wire Notes Line
	5700 2750 5700 7750
Wire Notes Line
	500  4450 8050 4450
$Comp
L power:GND #PWR03
U 1 1 5DF2A91C
P 800 3150
F 0 "#PWR03" H 800 2900 50  0001 C CNN
F 1 "GND" H 805 2977 50  0000 C CNN
F 2 "" H 800 3150 50  0001 C CNN
F 3 "" H 800 3150 50  0001 C CNN
	1    800  3150
	-1   0    0    -1  
$EndComp
$Comp
L Device:C C2
U 1 1 5DF30173
P 800 2800
F 0 "C2" H 915 2846 50  0000 L CNN
F 1 "10uF" H 915 2755 50  0000 L CNN
F 2 "Capacitor_SMD:C_1206_3216Metric_Pad1.42x1.75mm_HandSolder" H 838 2650 50  0001 C CNN
F 3 "~" H 800 2800 50  0001 C CNN
F 4 "1276-3295-1-ND" H 800 2800 50  0001 C CNN "SKU"
	1    800  2800
	1    0    0    -1  
$EndComp
$Comp
L Device:C C3
U 1 1 5DF30892
P 1200 2800
F 0 "C3" H 1315 2846 50  0000 L CNN
F 1 "0.1uF" H 1315 2755 50  0000 L CNN
F 2 "Capacitor_SMD:C_1206_3216Metric_Pad1.42x1.75mm_HandSolder" H 1238 2650 50  0001 C CNN
F 3 "~" H 1200 2800 50  0001 C CNN
F 4 "399-4674-1-ND" H 1200 2800 50  0001 C CNN "SKU"
	1    1200 2800
	1    0    0    -1  
$EndComp
$Comp
L power:+3.3V #PWR02
U 1 1 5DF30DCE
P 800 2450
F 0 "#PWR02" H 800 2300 50  0001 C CNN
F 1 "+3.3V" H 815 2623 50  0000 C CNN
F 2 "" H 800 2450 50  0001 C CNN
F 3 "" H 800 2450 50  0001 C CNN
	1    800  2450
	1    0    0    -1  
$EndComp
Wire Wire Line
	800  2450 800  2550
Wire Wire Line
	800  2550 1200 2550
Wire Wire Line
	1200 2550 1200 2650
Connection ~ 800  2550
Wire Wire Line
	800  2550 800  2650
Wire Wire Line
	1200 2950 1200 3050
Wire Wire Line
	800  2950 800  3050
Wire Wire Line
	800  3050 1200 3050
Connection ~ 800  3050
Wire Wire Line
	800  3050 800  3150
Wire Wire Line
	9850 3550 9850 3350
Wire Wire Line
	10300 3950 9850 3950
Wire Wire Line
	10300 4050 9850 4050
$Comp
L power:+12V #PWR025
U 1 1 5DC7EF33
P 9850 4050
F 0 "#PWR025" H 9850 3900 50  0001 C CNN
F 1 "+12V" V 9865 4178 50  0000 L CNN
F 2 "" H 9850 4050 50  0001 C CNN
F 3 "" H 9850 4050 50  0001 C CNN
	1    9850 4050
	0    -1   1    0   
$EndComp
$Comp
L power:+12V #PWR027
U 1 1 5DC7FBE4
P 9850 5150
F 0 "#PWR027" H 9850 5000 50  0001 C CNN
F 1 "+12V" V 9865 5278 50  0000 L CNN
F 2 "" H 9850 5150 50  0001 C CNN
F 3 "" H 9850 5150 50  0001 C CNN
	1    9850 5150
	0    -1   1    0   
$EndComp
Wire Wire Line
	9850 4650 9850 4450
Wire Wire Line
	9850 5050 10300 5050
Wire Wire Line
	10300 5150 9850 5150
Wire Wire Line
	9850 5650 9850 5450
$Comp
L power:+12V #PWR029
U 1 1 5DC8A89B
P 9850 6150
F 0 "#PWR029" H 9850 6000 50  0001 C CNN
F 1 "+12V" V 9865 6278 50  0000 L CNN
F 2 "" H 9850 6150 50  0001 C CNN
F 3 "" H 9850 6150 50  0001 C CNN
	1    9850 6150
	0    -1   1    0   
$EndComp
Wire Wire Line
	9850 6150 10300 6150
Wire Wire Line
	10300 6050 9850 6050
$Comp
L power:GND #PWR0101
U 1 1 5DCF2C81
P 6800 1800
F 0 "#PWR0101" H 6800 1550 50  0001 C CNN
F 1 "GND" H 6805 1627 50  0000 C CNN
F 2 "" H 6800 1800 50  0001 C CNN
F 3 "" H 6800 1800 50  0001 C CNN
	1    6800 1800
	0    1    -1   0   
$EndComp
$Comp
L power:+3.3V #PWR0102
U 1 1 5DCF35E8
P 6800 1900
F 0 "#PWR0102" H 6800 1750 50  0001 C CNN
F 1 "+3.3V" H 6815 2073 50  0000 C CNN
F 2 "" H 6800 1900 50  0001 C CNN
F 3 "" H 6800 1900 50  0001 C CNN
	1    6800 1900
	0    -1   -1   0   
$EndComp
Wire Wire Line
	10250 1800 10400 1800
Wire Wire Line
	10400 1700 10250 1700
$Comp
L Connector_Generic:Conn_01x04 J4
U 1 1 5DCF40B3
P 10600 1600
F 0 "J4" H 10680 1592 50  0000 L CNN
F 1 "i2c" H 10680 1501 50  0000 L CNN
F 2 "Connector_JST:JST_PH_S4B-PH-K_1x04_P2.00mm_Horizontal" H 10600 1600 50  0001 C CNN
F 3 "~" H 10600 1600 50  0001 C CNN
F 4 "455-1721-ND" H 10600 1600 50  0001 C CNN "SKU"
	1    10600 1600
	1    0    0    -1  
$EndComp
Text Notes 8500 650  0    50   ~ 0
Analog In
Text Notes 8500 1750 0    50   ~ 0
Digital (disabled on SPI)
Text Notes 8500 1200 0    50   ~ 0
Digital (disabled on SPI)
Text Notes 9750 650  0    50   ~ 0
SPI
Text Notes 9750 1400 0    50   ~ 0
i2c
Text Notes 9750 2000 0    50   ~ 0
i2c
Wire Wire Line
	10250 1600 10400 1600
Wire Wire Line
	10250 1500 10400 1500
Text GLabel 10250 1500 0    50   Input ~ 0
IO21
Text GLabel 10250 1600 0    50   Input ~ 0
IO22
Text GLabel 10250 2200 0    50   Input ~ 0
IO22
Text GLabel 10250 2100 0    50   Input ~ 0
IO21
$Comp
L Regulator_Linear:AZ1117-3.3 U4
U 1 1 5DC9FF1D
P 7250 4900
F 0 "U4" H 7250 5142 50  0000 C CNN
F 1 "AZ1117-3.3" H 7250 5051 50  0000 C CNN
F 2 "Package_TO_SOT_SMD:SOT-223" H 7250 5150 50  0001 C CIN
F 3 "https://www.diodes.com/assets/Datasheets/AZ1117.pdf" H 7250 4900 50  0001 C CNN
F 4 "AZ1117EH-3.3TRG1DICT-ND" H 7250 4900 50  0001 C CNN "SKU"
	1    7250 4900
	1    0    0    -1  
$EndComp
$Comp
L power:GND #PWR023
U 1 1 5DCA1004
P 7250 5450
F 0 "#PWR023" H 7250 5200 50  0001 C CNN
F 1 "GND" H 7255 5277 50  0000 C CNN
F 2 "" H 7250 5450 50  0001 C CNN
F 3 "" H 7250 5450 50  0001 C CNN
	1    7250 5450
	1    0    0    -1  
$EndComp
Wire Wire Line
	7250 5450 7250 5300
Connection ~ 7250 5300
Wire Wire Line
	7250 5300 7250 5200
Wire Wire Line
	7550 4900 7600 4900
$Comp
L power:+3.3V #PWR024
U 1 1 5DCA4D6C
P 7600 4900
F 0 "#PWR024" H 7600 4750 50  0001 C CNN
F 1 "+3.3V" V 7615 5028 50  0000 L CNN
F 2 "" H 7600 4900 50  0001 C CNN
F 3 "" H 7600 4900 50  0001 C CNN
	1    7600 4900
	0    1    1    0   
$EndComp
$Comp
L power:+12V #PWR022
U 1 1 5DC7E8D0
P 6850 4700
F 0 "#PWR022" H 6850 4550 50  0001 C CNN
F 1 "+12V" H 6865 4873 50  0000 C CNN
F 2 "" H 6850 4700 50  0001 C CNN
F 3 "" H 6850 4700 50  0001 C CNN
	1    6850 4700
	1    0    0    -1  
$EndComp
Wire Wire Line
	6850 4900 6950 4900
Connection ~ 6850 4900
Wire Wire Line
	6850 4900 6850 4700
Wire Wire Line
	6300 4900 6850 4900
Wire Wire Line
	4700 4350 4750 4350
$Comp
L Device:R R11
U 1 1 5DDEA5DA
P 4900 4350
F 0 "R11" H 4830 4304 50  0000 R CNN
F 1 "510R" H 4830 4395 50  0000 R CNN
F 2 "Resistor_SMD:R_1206_3216Metric_Pad1.42x1.75mm_HandSolder" V 4830 4350 50  0001 C CNN
F 3 "~" H 4900 4350 50  0001 C CNN
F 4 "311-510FRCT-ND" H 4900 4350 50  0001 C CNN "SKU"
	1    4900 4350
	0    1    1    0   
$EndComp
Wire Wire Line
	5050 4350 5150 4350
Wire Wire Line
	4300 4350 4400 4350
$Comp
L power:GND #PWR0105
U 1 1 5DDEA5E6
P 5150 4350
F 0 "#PWR0105" H 5150 4100 50  0001 C CNN
F 1 "GND" H 5155 4177 50  0000 C CNN
F 2 "" H 5150 4350 50  0001 C CNN
F 3 "" H 5150 4350 50  0001 C CNN
	1    5150 4350
	0    -1   -1   0   
$EndComp
$Comp
L Device:LED D4
U 1 1 5DDEA5F1
P 4550 4350
F 0 "D4" V 4600 4250 50  0000 R CNN
F 1 "LED_RED" V 4500 4250 50  0000 R CNN
F 2 "LED_SMD:LED_1206_3216Metric_Pad1.42x1.75mm_HandSolder" H 4550 4350 50  0001 C CNN
F 3 "~" H 4550 4350 50  0001 C CNN
F 4 "160-1167-1-ND" H 4550 4350 50  0001 C CNN "SKU"
	1    4550 4350
	-1   0    0    1   
$EndComp
$Comp
L power:+12V #PWR0106
U 1 1 5DDF682B
P 4300 4350
F 0 "#PWR0106" H 4300 4200 50  0001 C CNN
F 1 "+12V" H 4315 4523 50  0000 C CNN
F 2 "" H 4300 4350 50  0001 C CNN
F 3 "" H 4300 4350 50  0001 C CNN
	1    4300 4350
	0    -1   -1   0   
$EndComp
Wire Wire Line
	6850 5300 7250 5300
Wire Wire Line
	6850 5100 6850 5300
Wire Wire Line
	6300 5100 6850 5100
$Comp
L Switch:SW_SPST SW2
U 1 1 5DE4F1B3
P 5100 3450
F 0 "SW2" H 5100 3685 50  0000 C CNN
F 1 "SW_SPST" H 5100 3594 50  0000 C CNN
F 2 "Button_Switch_SMD:SW_SPST_EVQP7C" H 5100 3450 50  0001 C CNN
F 3 "~" H 5100 3450 50  0001 C CNN
F 4 "P16765CT-ND" H 5100 3450 50  0001 C CNN "SKU"
	1    5100 3450
	1    0    0    -1  
$EndComp
$Comp
L Switch:SW_SPST SW1
U 1 1 5DE4F886
P 1200 1650
F 0 "SW1" V 1154 1748 50  0000 L CNN
F 1 "SW_SPST" V 1245 1748 50  0000 L CNN
F 2 "Button_Switch_SMD:SW_SPST_EVQP7C" H 1200 1650 50  0001 C CNN
F 3 "~" H 1200 1650 50  0001 C CNN
F 4 "P16765CT-ND" H 1200 1650 50  0001 C CNN "SKU"
	1    1200 1650
	0    1    1    0   
$EndComp
NoConn ~ 1500 6150
$Comp
L Connector:Barrel_Jack J2
U 1 1 5DC9C87E
P 6000 5000
F 0 "J2" H 6057 5325 50  0000 C CNN
F 1 "Barrel_Jack" H 6057 5234 50  0000 C CNN
F 2 "Connector_BarrelJack:BarrelJack_CUI_PJ-063AH_Horizontal" H 6050 4960 50  0001 C CNN
F 3 "~" H 6050 4960 50  0001 C CNN
F 4 "CP-063AH-ND" H 6000 5000 50  0001 C CNN "SKU"
	1    6000 5000
	1    0    0    -1  
$EndComp
Text GLabel 1550 1350 1    50   Input ~ 0
EN
$Comp
L Connector_Generic:Conn_01x15 J14
U 1 1 5DFCB78F
P 5500 1700
F 0 "J14" H 5580 1742 50  0000 L CNN
F 1 "header_right" H 5580 1651 50  0000 L CNN
F 2 "Connector_PinSocket_2.54mm:PinSocket_1x15_P2.54mm_Vertical" H 5500 1700 50  0001 C CNN
F 3 "~" H 5500 1700 50  0001 C CNN
	1    5500 1700
	1    0    0    -1  
$EndComp
$Comp
L Connector_Generic:Conn_01x15 J13
U 1 1 5DFCC08E
P 4600 1700
F 0 "J13" H 4680 1742 50  0000 L CNN
F 1 "header_left" H 4680 1651 50  0000 L CNN
F 2 "Connector_PinSocket_2.54mm:PinSocket_1x15_P2.54mm_Vertical" H 4600 1700 50  0001 C CNN
F 3 "~" H 4600 1700 50  0001 C CNN
	1    4600 1700
	1    0    0    -1  
$EndComp
Text GLabel 1800 1650 0    50   Input ~ 0
VN
Text GLabel 1800 1550 0    50   Input ~ 0
VP
Text GLabel 4400 1200 0    50   Input ~ 0
VN
Text GLabel 4400 1100 0    50   Input ~ 0
VP
Text GLabel 4400 1300 0    50   Input ~ 0
IO34
Text GLabel 4400 1400 0    50   Input ~ 0
IO35
Text GLabel 3400 3250 2    50   Input ~ 0
IO27
Text GLabel 3400 3350 2    50   Input ~ 0
IO32
Text GLabel 3400 3450 2    50   Input ~ 0
IO33
Wire Wire Line
	3400 3250 3000 3250
Wire Wire Line
	3400 3350 3000 3350
Wire Wire Line
	3000 3450 3400 3450
Text GLabel 4400 1500 0    50   Input ~ 0
IO32
Text GLabel 4400 1600 0    50   Input ~ 0
IO33
Text GLabel 4400 1700 0    50   Input ~ 0
IO25
Text GLabel 4400 1800 0    50   Input ~ 0
IO26
Text GLabel 4400 1900 0    50   Input ~ 0
IO27
Text GLabel 3400 1950 2    50   Input ~ 0
IO12
Text GLabel 3400 2050 2    50   Input ~ 0
IO13
Text GLabel 3400 2150 2    50   Input ~ 0
IO14
Text GLabel 3400 2250 2    50   Input ~ 0
IO15
Wire Wire Line
	3400 1950 3000 1950
Wire Wire Line
	3000 2050 3400 2050
Wire Wire Line
	3400 2150 3000 2150
Wire Wire Line
	3000 2250 3400 2250
Text GLabel 4400 2000 0    50   Input ~ 0
IO14
Text GLabel 4400 2100 0    50   Input ~ 0
IO12
Text GLabel 4400 2200 0    50   Input ~ 0
IO13
Text GLabel 5300 1100 0    50   Input ~ 0
IO23
Text GLabel 5300 1200 0    50   Input ~ 0
IO22
Text GLabel 5300 1300 0    50   Input ~ 0
U0TXD
Text GLabel 5300 1400 0    50   Input ~ 0
U0RXD
Text GLabel 5300 1500 0    50   Input ~ 0
IO21
Text GLabel 5300 1600 0    50   Input ~ 0
IO19
Text GLabel 5300 1700 0    50   Input ~ 0
IO18
Text GLabel 5300 1900 0    50   Input ~ 0
IO17
Text GLabel 5300 1800 0    50   Input ~ 0
IO5
Text GLabel 5300 2000 0    50   Input ~ 0
IO16
Text GLabel 3400 1750 2    50   Input ~ 0
IO4
Wire Wire Line
	3400 1750 3000 1750
Text GLabel 5300 2100 0    50   Input ~ 0
IO4
Text GLabel 3400 1550 2    50   Input ~ 0
IO02
Wire Wire Line
	3000 1550 3400 1550
Text GLabel 5300 2300 0    50   Input ~ 0
IO02
Text GLabel 5300 2200 0    50   Input ~ 0
IO0
$Comp
L power:GND #PWR0104
U 1 1 5E0571EF
P 8750 2150
F 0 "#PWR0104" H 8750 1900 50  0001 C CNN
F 1 "GND" H 8755 1977 50  0000 C CNN
F 2 "" H 8750 2150 50  0001 C CNN
F 3 "" H 8750 2150 50  0001 C CNN
	1    8750 2150
	0    1    -1   0   
$EndComp
$Comp
L power:+3.3V #PWR0107
U 1 1 5E057CA6
P 8750 2050
F 0 "#PWR0107" H 8750 1900 50  0001 C CNN
F 1 "+3.3V" H 8765 2223 50  0000 C CNN
F 2 "" H 8750 2050 50  0001 C CNN
F 3 "" H 8750 2050 50  0001 C CNN
	1    8750 2050
	0    -1   -1   0   
$EndComp
$Comp
L power:GND #PWR0108
U 1 1 5E060CB9
P 8750 1600
F 0 "#PWR0108" H 8750 1350 50  0001 C CNN
F 1 "GND" H 8755 1427 50  0000 C CNN
F 2 "" H 8750 1600 50  0001 C CNN
F 3 "" H 8750 1600 50  0001 C CNN
	1    8750 1600
	0    1    -1   0   
$EndComp
$Comp
L power:+3.3V #PWR0109
U 1 1 5E060CBF
P 8750 1500
F 0 "#PWR0109" H 8750 1350 50  0001 C CNN
F 1 "+3.3V" H 8765 1673 50  0000 C CNN
F 2 "" H 8750 1500 50  0001 C CNN
F 3 "" H 8750 1500 50  0001 C CNN
	1    8750 1500
	0    -1   -1   0   
$EndComp
$Comp
L power:GND #PWR0110
U 1 1 5E06D869
P 8750 1050
F 0 "#PWR0110" H 8750 800 50  0001 C CNN
F 1 "GND" H 8755 877 50  0000 C CNN
F 2 "" H 8750 1050 50  0001 C CNN
F 3 "" H 8750 1050 50  0001 C CNN
	1    8750 1050
	0    1    -1   0   
$EndComp
$Comp
L power:+3.3V #PWR0111
U 1 1 5E06D86F
P 8750 950
F 0 "#PWR0111" H 8750 800 50  0001 C CNN
F 1 "+3.3V" H 8765 1123 50  0000 C CNN
F 2 "" H 8750 950 50  0001 C CNN
F 3 "" H 8750 950 50  0001 C CNN
	1    8750 950 
	0    -1   -1   0   
$EndComp
$Comp
L power:GND #PWR0112
U 1 1 5E073B5B
P 10250 1250
F 0 "#PWR0112" H 10250 1000 50  0001 C CNN
F 1 "GND" H 10255 1077 50  0000 C CNN
F 2 "" H 10250 1250 50  0001 C CNN
F 3 "" H 10250 1250 50  0001 C CNN
	1    10250 1250
	0    1    -1   0   
$EndComp
$Comp
L power:+3.3V #PWR0113
U 1 1 5E073B61
P 10250 1150
F 0 "#PWR0113" H 10250 1000 50  0001 C CNN
F 1 "+3.3V" H 10265 1323 50  0000 C CNN
F 2 "" H 10250 1150 50  0001 C CNN
F 3 "" H 10250 1150 50  0001 C CNN
	1    10250 1150
	0    -1   -1   0   
$EndComp
$Comp
L power:GND #PWR0114
U 1 1 5E079883
P 10250 1800
F 0 "#PWR0114" H 10250 1550 50  0001 C CNN
F 1 "GND" H 10255 1627 50  0000 C CNN
F 2 "" H 10250 1800 50  0001 C CNN
F 3 "" H 10250 1800 50  0001 C CNN
	1    10250 1800
	0    1    -1   0   
$EndComp
$Comp
L power:+3.3V #PWR0115
U 1 1 5E079889
P 10250 1700
F 0 "#PWR0115" H 10250 1550 50  0001 C CNN
F 1 "+3.3V" H 10265 1873 50  0000 C CNN
F 2 "" H 10250 1700 50  0001 C CNN
F 3 "" H 10250 1700 50  0001 C CNN
	1    10250 1700
	0    -1   -1   0   
$EndComp
$Comp
L power:GND #PWR0116
U 1 1 5E07F5D1
P 10250 2400
F 0 "#PWR0116" H 10250 2150 50  0001 C CNN
F 1 "GND" H 10255 2227 50  0000 C CNN
F 2 "" H 10250 2400 50  0001 C CNN
F 3 "" H 10250 2400 50  0001 C CNN
	1    10250 2400
	0    1    -1   0   
$EndComp
$Comp
L power:+3.3V #PWR0117
U 1 1 5E07F5D7
P 10250 2300
F 0 "#PWR0117" H 10250 2150 50  0001 C CNN
F 1 "+3.3V" H 10265 2473 50  0000 C CNN
F 2 "" H 10250 2300 50  0001 C CNN
F 3 "" H 10250 2300 50  0001 C CNN
	1    10250 2300
	0    -1   -1   0   
$EndComp
$Comp
L power:GND #PWR0118
U 1 1 5E085429
P 4400 2300
F 0 "#PWR0118" H 4400 2050 50  0001 C CNN
F 1 "GND" H 4405 2127 50  0000 C CNN
F 2 "" H 4400 2300 50  0001 C CNN
F 3 "" H 4400 2300 50  0001 C CNN
	1    4400 2300
	0    1    -1   0   
$EndComp
$Comp
L power:+3.3V #PWR0119
U 1 1 5E08542F
P 4400 1000
F 0 "#PWR0119" H 4400 850 50  0001 C CNN
F 1 "+3.3V" H 4415 1173 50  0000 C CNN
F 2 "" H 4400 1000 50  0001 C CNN
F 3 "" H 4400 1000 50  0001 C CNN
	1    4400 1000
	0    -1   -1   0   
$EndComp
$Comp
L power:GND #PWR0120
U 1 1 5E08B8F1
P 5300 1000
F 0 "#PWR0120" H 5300 750 50  0001 C CNN
F 1 "GND" H 5305 827 50  0000 C CNN
F 2 "" H 5300 1000 50  0001 C CNN
F 3 "" H 5300 1000 50  0001 C CNN
	1    5300 1000
	0    1    -1   0   
$EndComp
Text GLabel 5300 2400 0    50   Input ~ 0
IO15
$Comp
L power:+3.3V #PWR0103
U 1 1 5E0B5CC0
P 4400 2400
F 0 "#PWR0103" H 4400 2250 50  0001 C CNN
F 1 "+3.3V" H 4415 2573 50  0000 C CNN
F 2 "" H 4400 2400 50  0001 C CNN
F 3 "" H 4400 2400 50  0001 C CNN
	1    4400 2400
	0    -1   -1   0   
$EndComp
NoConn ~ 4450 6450
NoConn ~ 4450 6250
NoConn ~ 4450 6550
NoConn ~ 4450 6650
NoConn ~ 4450 6850
NoConn ~ 4450 6950
NoConn ~ 1800 2550
NoConn ~ 1800 2650
NoConn ~ 1800 2750
NoConn ~ 1800 2850
NoConn ~ 1800 2950
NoConn ~ 1800 3050
$Comp
L power:+3.3V #PWR0121
U 1 1 5E0FE15D
P 5100 5550
F 0 "#PWR0121" H 5100 5400 50  0001 C CNN
F 1 "+3.3V" H 5115 5723 50  0000 C CNN
F 2 "" H 5100 5550 50  0001 C CNN
F 3 "" H 5100 5550 50  0001 C CNN
	1    5100 5550
	1    0    0    -1  
$EndComp
Wire Wire Line
	5100 6250 5100 5900
Wire Wire Line
	5450 6250 5450 5900
Wire Wire Line
	5450 5900 5100 5900
Connection ~ 5100 5900
Wire Wire Line
	5100 5900 5100 5550
Text GLabel 9150 2600 0    50   Input ~ 0
IO21
Text GLabel 9150 2800 0    50   Input ~ 0
IO22
$Comp
L power:+3.3V #PWR0122
U 1 1 5DD50AD8
P 9900 2700
F 0 "#PWR0122" H 9900 2550 50  0001 C CNN
F 1 "+3.3V" H 9915 2873 50  0000 C CNN
F 2 "" H 9900 2700 50  0001 C CNN
F 3 "" H 9900 2700 50  0001 C CNN
	1    9900 2700
	0    1    1    0   
$EndComp
$Comp
L Device:R R12
U 1 1 5DD50F15
P 9500 2600
F 0 "R12" H 9430 2554 50  0000 R CNN
F 1 "1k" H 9430 2645 50  0000 R CNN
F 2 "Resistor_SMD:R_1206_3216Metric_Pad1.42x1.75mm_HandSolder" V 9430 2600 50  0001 C CNN
F 3 "~" H 9500 2600 50  0001 C CNN
F 4 "311-1.00KFRCT-ND" H 9500 2600 50  0001 C CNN "SKU"
	1    9500 2600
	0    -1   1    0   
$EndComp
$Comp
L Device:R R13
U 1 1 5DD513AA
P 9500 2800
F 0 "R13" H 9430 2754 50  0000 R CNN
F 1 "1k" H 9430 2845 50  0000 R CNN
F 2 "Resistor_SMD:R_1206_3216Metric_Pad1.42x1.75mm_HandSolder" V 9430 2800 50  0001 C CNN
F 3 "~" H 9500 2800 50  0001 C CNN
F 4 "311-1.00KFRCT-ND" H 9500 2800 50  0001 C CNN "SKU"
	1    9500 2800
	0    -1   1    0   
$EndComp
Wire Wire Line
	9350 2800 9150 2800
Wire Wire Line
	9350 2600 9150 2600
Wire Wire Line
	9650 2600 9800 2600
Wire Wire Line
	9800 2600 9800 2700
Wire Wire Line
	9800 2700 9900 2700
Wire Wire Line
	9800 2700 9800 2800
Wire Wire Line
	9800 2800 9650 2800
Connection ~ 9800 2700
$EndSCHEMATC
